^D:\MACO\DOCUMENTS\MCOMP\GAMEENGINE - 06_12_2016\GAMEENGINE\ASTAR\ASTAR.CPP
/c /I.\INCLUDE /Zi /nologo /W3 /WX- /sdl /O2 /Oi /Oy- /GL /D _MBCS /Gm- /EHsc /MD /GS /Gy /fp:precise /Zc:wchar_t /Zc:forScope /Zc:inline /Fo"RELEASE\\" /Fd"RELEASE\VC140.PDB" /Gd /TP /analyze- D:\MACO\DOCUMENTS\MCOMP\GAMEENGINE - 06_12_2016\GAMEENGINE\ASTAR\ASTAR.CPP
^D:\MACO\DOCUMENTS\MCOMP\GAMEENGINE - 06_12_2016\GAMEENGINE\GAMEENGINE.CPP
/c /I.\INCLUDE /Zi /nologo /W3 /WX- /sdl /O2 /Oi /Oy- /GL /D _MBCS /Gm- /EHsc /MD /GS /Gy /fp:precise /Zc:wchar_t /Zc:forScope /Zc:inline /Fo"RELEASE\\" /Fd"RELEASE\VC140.PDB" /Gd /TP /analyze- D:\MACO\DOCUMENTS\MCOMP\GAMEENGINE - 06_12_2016\GAMEENGINE\GAMEENGINE.CPP
^D:\MACO\DOCUMENTS\MCOMP\GAMEENGINE - 06_12_2016\GAMEENGINE\GAMEOBJECTS\CAMERA.CPP
/c /I.\INCLUDE /Zi /nologo /W3 /WX- /sdl /O2 /Oi /Oy- /GL /D _MBCS /Gm- /EHsc /MD /GS /Gy /fp:precise /Zc:wchar_t /Zc:forScope /Zc:inline /Fo"RELEASE\\" /Fd"RELEASE\VC140.PDB" /Gd /TP /analyze- D:\MACO\DOCUMENTS\MCOMP\GAMEENGINE - 06_12_2016\GAMEENGINE\GAMEOBJECTS\CAMERA.CPP
^D:\MACO\DOCUMENTS\MCOMP\GAMEENGINE - 06_12_2016\GAMEENGINE\GAMEOBJECTS\CAR\CAR.CPP
/c /I.\INCLUDE /Zi /nologo /W3 /WX- /sdl /O2 /Oi /Oy- /GL /D _MBCS /Gm- /EHsc /MD /GS /Gy /fp:precise /Zc:wchar_t /Zc:forScope /Zc:inline /Fo"RELEASE\\" /Fd"RELEASE\VC140.PDB" /Gd /TP /analyze- D:\MACO\DOCUMENTS\MCOMP\GAMEENGINE - 06_12_2016\GAMEENGINE\GAMEOBJECTS\CAR\CAR.CPP
^D:\MACO\DOCUMENTS\MCOMP\GAMEENGINE - 06_12_2016\GAMEENGINE\GAMEOBJECTS\MODELLIBRARY.CPP
/c /I.\INCLUDE /Zi /nologo /W3 /WX- /sdl /O2 /Oi /Oy- /GL /D _MBCS /Gm- /EHsc /MD /GS /Gy /fp:precise /Zc:wchar_t /Zc:forScope /Zc:inline /Fo"RELEASE\\" /Fd"RELEASE\VC140.PDB" /Gd /TP /analyze- D:\MACO\DOCUMENTS\MCOMP\GAMEENGINE - 06_12_2016\GAMEENGINE\GAMEOBJECTS\MODELLIBRARY.CPP
^D:\MACO\DOCUMENTS\MCOMP\GAMEENGINE - 06_12_2016\GAMEENGINE\GAMEOBJECTS\PRIMITIVES\MESH.CPP
/c /I.\INCLUDE /Zi /nologo /W3 /WX- /sdl /O2 /Oi /Oy- /GL /D _MBCS /Gm- /EHsc /MD /GS /Gy /fp:precise /Zc:wchar_t /Zc:forScope /Zc:inline /Fo"RELEASE\\" /Fd"RELEASE\VC140.PDB" /Gd /TP /analyze- D:\MACO\DOCUMENTS\MCOMP\GAMEENGINE - 06_12_2016\GAMEENGINE\GAMEOBJECTS\PRIMITIVES\MESH.CPP
^D:\MACO\DOCUMENTS\MCOMP\GAMEENGINE - 06_12_2016\GAMEENGINE\GAMEOBJECTS\PRIMITIVES\RAY.CPP
/c /I.\INCLUDE /Zi /nologo /W3 /WX- /sdl /O2 /Oi /Oy- /GL /D _MBCS /Gm- /EHsc /MD /GS /Gy /fp:precise /Zc:wchar_t /Zc:forScope /Zc:inline /Fo"RELEASE\\" /Fd"RELEASE\VC140.PDB" /Gd /TP /analyze- D:\MACO\DOCUMENTS\MCOMP\GAMEENGINE - 06_12_2016\GAMEENGINE\GAMEOBJECTS\PRIMITIVES\RAY.CPP
^D:\MACO\DOCUMENTS\MCOMP\GAMEENGINE - 06_12_2016\GAMEENGINE\GAMEOBJECTS\ROADS\CORNER.CPP
/c /I.\INCLUDE /Zi /nologo /W3 /WX- /sdl /O2 /Oi /Oy- /GL /D _MBCS /Gm- /EHsc /MD /GS /Gy /fp:precise /Zc:wchar_t /Zc:forScope /Zc:inline /Fo"RELEASE\\" /Fd"RELEASE\VC140.PDB" /Gd /TP /analyze- D:\MACO\DOCUMENTS\MCOMP\GAMEENGINE - 06_12_2016\GAMEENGINE\GAMEOBJECTS\ROADS\CORNER.CPP
^D:\MACO\DOCUMENTS\MCOMP\GAMEENGINE - 06_12_2016\GAMEENGINE\GAMEOBJECTS\ROADS\CROSSROAD.CPP
/c /I.\INCLUDE /Zi /nologo /W3 /WX- /sdl /O2 /Oi /Oy- /GL /D _MBCS /Gm- /EHsc /MD /GS /Gy /fp:precise /Zc:wchar_t /Zc:forScope /Zc:inline /Fo"RELEASE\\" /Fd"RELEASE\VC140.PDB" /Gd /TP /analyze- D:\MACO\DOCUMENTS\MCOMP\GAMEENGINE - 06_12_2016\GAMEENGINE\GAMEOBJECTS\ROADS\CROSSROAD.CPP
^D:\MACO\DOCUMENTS\MCOMP\GAMEENGINE - 06_12_2016\GAMEENGINE\GAMEOBJECTS\ROADS\EMPTY.CPP
/c /I.\INCLUDE /Zi /nologo /W3 /WX- /sdl /O2 /Oi /Oy- /GL /D _MBCS /Gm- /EHsc /MD /GS /Gy /fp:precise /Zc:wchar_t /Zc:forScope /Zc:inline /Fo"RELEASE\\" /Fd"RELEASE\VC140.PDB" /Gd /TP /analyze- D:\MACO\DOCUMENTS\MCOMP\GAMEENGINE - 06_12_2016\GAMEENGINE\GAMEOBJECTS\ROADS\EMPTY.CPP
^D:\MACO\DOCUMENTS\MCOMP\GAMEENGINE - 06_12_2016\GAMEENGINE\GAMEOBJECTS\ROADS\ROAD.CPP
/c /I.\INCLUDE /Zi /nologo /W3 /WX- /sdl /O2 /Oi /Oy- /GL /D _MBCS /Gm- /EHsc /MD /GS /Gy /fp:precise /Zc:wchar_t /Zc:forScope /Zc:inline /Fo"RELEASE\\" /Fd"RELEASE\VC140.PDB" /Gd /TP /analyze- D:\MACO\DOCUMENTS\MCOMP\GAMEENGINE - 06_12_2016\GAMEENGINE\GAMEOBJECTS\ROADS\ROAD.CPP
^D:\MACO\DOCUMENTS\MCOMP\GAMEENGINE - 06_12_2016\GAMEENGINE\GAMEOBJECTS\ROADS\ROADDETAILS.CPP
/c /I.\INCLUDE /Zi /nologo /W3 /WX- /sdl /O2 /Oi /Oy- /GL /D _MBCS /Gm- /EHsc /MD /GS /Gy /fp:precise /Zc:wchar_t /Zc:forScope /Zc:inline /Fo"RELEASE\\" /Fd"RELEASE\VC140.PDB" /Gd /TP /analyze- D:\MACO\DOCUMENTS\MCOMP\GAMEENGINE - 06_12_2016\GAMEENGINE\GAMEOBJECTS\ROADS\ROADDETAILS.CPP
^D:\MACO\DOCUMENTS\MCOMP\GAMEENGINE - 06_12_2016\GAMEENGINE\GAMEOBJECTS\ROADS\STRAIGHT.CPP
/c /I.\INCLUDE /Zi /nologo /W3 /WX- /sdl /O2 /Oi /Oy- /GL /D _MBCS /Gm- /EHsc /MD /GS /Gy /fp:precise /Zc:wchar_t /Zc:forScope /Zc:inline /Fo"RELEASE\\" /Fd"RELEASE\VC140.PDB" /Gd /TP /analyze- D:\MACO\DOCUMENTS\MCOMP\GAMEENGINE - 06_12_2016\GAMEENGINE\GAMEOBJECTS\ROADS\STRAIGHT.CPP
^D:\MACO\DOCUMENTS\MCOMP\GAMEENGINE - 06_12_2016\GAMEENGINE\GAMEOBJECTS\ROADS\TJUNC.CPP
/c /I.\INCLUDE /Zi /nologo /W3 /WX- /sdl /O2 /Oi /Oy- /GL /D _MBCS /Gm- /EHsc /MD /GS /Gy /fp:precise /Zc:wchar_t /Zc:forScope /Zc:inline /Fo"RELEASE\\" /Fd"RELEASE\VC140.PDB" /Gd /TP /analyze- D:\MACO\DOCUMENTS\MCOMP\GAMEENGINE - 06_12_2016\GAMEENGINE\GAMEOBJECTS\ROADS\TJUNC.CPP
^D:\MACO\DOCUMENTS\MCOMP\GAMEENGINE - 06_12_2016\GAMEENGINE\GAMEOBJECTS\WORLD\2DWORLD.CPP
/c /I.\INCLUDE /Zi /nologo /W3 /WX- /sdl /O2 /Oi /Oy- /GL /D _MBCS /Gm- /EHsc /MD /GS /Gy /fp:precise /Zc:wchar_t /Zc:forScope /Zc:inline /Fo"RELEASE\\" /Fd"RELEASE\VC140.PDB" /Gd /TP /analyze- D:\MACO\DOCUMENTS\MCOMP\GAMEENGINE - 06_12_2016\GAMEENGINE\GAMEOBJECTS\WORLD\2DWORLD.CPP
^D:\MACO\DOCUMENTS\MCOMP\GAMEENGINE - 06_12_2016\GAMEENGINE\GUI\BUTTON.CPP
/c /I.\INCLUDE /Zi /nologo /W3 /WX- /sdl /O2 /Oi /Oy- /GL /D _MBCS /Gm- /EHsc /MD /GS /Gy /fp:precise /Zc:wchar_t /Zc:forScope /Zc:inline /Fo"RELEASE\\" /Fd"RELEASE\VC140.PDB" /Gd /TP /analyze- D:\MACO\DOCUMENTS\MCOMP\GAMEENGINE - 06_12_2016\GAMEENGINE\GUI\BUTTON.CPP
^D:\MACO\DOCUMENTS\MCOMP\GAMEENGINE - 06_12_2016\GAMEENGINE\GUI\GUI.CPP
/c /I.\INCLUDE /Zi /nologo /W3 /WX- /sdl /O2 /Oi /Oy- /GL /D _MBCS /Gm- /EHsc /MD /GS /Gy /fp:precise /Zc:wchar_t /Zc:forScope /Zc:inline /Fo"RELEASE\\" /Fd"RELEASE\VC140.PDB" /Gd /TP /analyze- D:\MACO\DOCUMENTS\MCOMP\GAMEENGINE - 06_12_2016\GAMEENGINE\GUI\GUI.CPP
^D:\MACO\DOCUMENTS\MCOMP\GAMEENGINE - 06_12_2016\GAMEENGINE\IO\DISPLAYWINDOW.CPP
/c /I.\INCLUDE /Zi /nologo /W3 /WX- /sdl /O2 /Oi /Oy- /GL /D _MBCS /Gm- /EHsc /MD /GS /Gy /fp:precise /Zc:wchar_t /Zc:forScope /Zc:inline /Fo"RELEASE\\" /Fd"RELEASE\VC140.PDB" /Gd /TP /analyze- D:\MACO\DOCUMENTS\MCOMP\GAMEENGINE - 06_12_2016\GAMEENGINE\IO\DISPLAYWINDOW.CPP
^D:\MACO\DOCUMENTS\MCOMP\GAMEENGINE - 06_12_2016\GAMEENGINE\MAPGEN\ROADMAPGEN.CPP
/c /I.\INCLUDE /Zi /nologo /W3 /WX- /sdl /O2 /Oi /Oy- /GL /D _MBCS /Gm- /EHsc /MD /GS /Gy /fp:precise /Zc:wchar_t /Zc:forScope /Zc:inline /Fo"RELEASE\\" /Fd"RELEASE\VC140.PDB" /Gd /TP /analyze- D:\MACO\DOCUMENTS\MCOMP\GAMEENGINE - 06_12_2016\GAMEENGINE\MAPGEN\ROADMAPGEN.CPP
^D:\MACO\DOCUMENTS\MCOMP\GAMEENGINE - 06_12_2016\GAMEENGINE\OBJECTLOADING\ASSIMP\ASSIMPMODEL.CPP
/c /I.\INCLUDE /Zi /nologo /W3 /WX- /sdl /O2 /Oi /Oy- /GL /D _MBCS /Gm- /EHsc /MD /GS /Gy /fp:precise /Zc:wchar_t /Zc:forScope /Zc:inline /Fo"RELEASE\\" /Fd"RELEASE\VC140.PDB" /Gd /TP /analyze- D:\MACO\DOCUMENTS\MCOMP\GAMEENGINE - 06_12_2016\GAMEENGINE\OBJECTLOADING\ASSIMP\ASSIMPMODEL.CPP
^D:\MACO\DOCUMENTS\MCOMP\GAMEENGINE - 06_12_2016\GAMEENGINE\OBJECTLOADING\ASSIMP\ASSIMPTEXTURE.CPP
/c /I.\INCLUDE /Zi /nologo /W3 /WX- /sdl /O2 /Oi /Oy- /GL /D _MBCS /Gm- /EHsc /MD /GS /Gy /fp:precise /Zc:wchar_t /Zc:forScope /Zc:inline /Fo"RELEASE\\" /Fd"RELEASE\VC140.PDB" /Gd /TP /analyze- D:\MACO\DOCUMENTS\MCOMP\GAMEENGINE - 06_12_2016\GAMEENGINE\OBJECTLOADING\ASSIMP\ASSIMPTEXTURE.CPP
^D:\MACO\DOCUMENTS\MCOMP\GAMEENGINE - 06_12_2016\GAMEENGINE\OBJECTLOADING\ASSIMP\VERTEXBUFFER.CPP
/c /I.\INCLUDE /Zi /nologo /W3 /WX- /sdl /O2 /Oi /Oy- /GL /D _MBCS /Gm- /EHsc /MD /GS /Gy /fp:precise /Zc:wchar_t /Zc:forScope /Zc:inline /Fo"RELEASE\\" /Fd"RELEASE\VC140.PDB" /Gd /TP /analyze- D:\MACO\DOCUMENTS\MCOMP\GAMEENGINE - 06_12_2016\GAMEENGINE\OBJECTLOADING\ASSIMP\VERTEXBUFFER.CPP
^D:\MACO\DOCUMENTS\MCOMP\GAMEENGINE - 06_12_2016\GAMEENGINE\OBJECTLOADING\OBJ_LOADER.CPP
/c /I.\INCLUDE /Zi /nologo /W3 /WX- /sdl /O2 /Oi /Oy- /GL /D _MBCS /Gm- /EHsc /MD /GS /Gy /fp:precise /Zc:wchar_t /Zc:forScope /Zc:inline /Fo"RELEASE\\" /Fd"RELEASE\VC140.PDB" /Gd /TP /analyze- D:\MACO\DOCUMENTS\MCOMP\GAMEENGINE - 06_12_2016\GAMEENGINE\OBJECTLOADING\OBJ_LOADER.CPP
^D:\MACO\DOCUMENTS\MCOMP\GAMEENGINE - 06_12_2016\GAMEENGINE\OBJECTLOADING\TEXTURE.CPP
/c /I.\INCLUDE /Zi /nologo /W3 /WX- /sdl /O2 /Oi /Oy- /GL /D _MBCS /Gm- /EHsc /MD /GS /Gy /fp:precise /Zc:wchar_t /Zc:forScope /Zc:inline /Fo"RELEASE\\" /Fd"RELEASE\VC140.PDB" /Gd /TP /analyze- D:\MACO\DOCUMENTS\MCOMP\GAMEENGINE - 06_12_2016\GAMEENGINE\OBJECTLOADING\TEXTURE.CPP
^D:\MACO\DOCUMENTS\MCOMP\GAMEENGINE - 06_12_2016\GAMEENGINE\OPENGLHELPER.CPP
/c /I.\INCLUDE /Zi /nologo /W3 /WX- /sdl /O2 /Oi /Oy- /GL /D _MBCS /Gm- /EHsc /MD /GS /Gy /fp:precise /Zc:wchar_t /Zc:forScope /Zc:inline /Fo"RELEASE\\" /Fd"RELEASE\VC140.PDB" /Gd /TP /analyze- D:\MACO\DOCUMENTS\MCOMP\GAMEENGINE - 06_12_2016\GAMEENGINE\OPENGLHELPER.CPP
^D:\MACO\DOCUMENTS\MCOMP\GAMEENGINE - 06_12_2016\GAMEENGINE\SHADER\SHADER.CPP
/c /I.\INCLUDE /Zi /nologo /W3 /WX- /sdl /O2 /Oi /Oy- /GL /D _MBCS /Gm- /EHsc /MD /GS /Gy /fp:precise /Zc:wchar_t /Zc:forScope /Zc:inline /Fo"RELEASE\\" /Fd"RELEASE\VC140.PDB" /Gd /TP /analyze- D:\MACO\DOCUMENTS\MCOMP\GAMEENGINE - 06_12_2016\GAMEENGINE\SHADER\SHADER.CPP
^D:\MACO\DOCUMENTS\MCOMP\GAMEENGINE - 06_12_2016\GAMEENGINE\OBJECTLOADING\STB_IMAGE.C
/c /I.\INCLUDE /Zi /nologo /W3 /WX- /sdl /O2 /Oi /Oy- /GL /D _MBCS /Gm- /EHsc /MD /GS /Gy /fp:precise /Zc:wchar_t /Zc:forScope /Zc:inline /Fo"RELEASE\\" /Fd"RELEASE\VC140.PDB" /Gd /TC /analyze- D:\MACO\DOCUMENTS\MCOMP\GAMEENGINE - 06_12_2016\GAMEENGINE\OBJECTLOADING\STB_IMAGE.C
^D:\MACO\DOCUMENTS\MCOMP\GAMEENGINE - 06_12_2016\GAMEENGINE\GAMEOBJECTS\WORLD\3DWORLD.CPP
/c /I.\INCLUDE /Zi /nologo /W3 /WX- /sdl /O2 /Oi /Oy- /GL /D _MBCS /Gm- /EHsc /MD /GS /Gy /fp:precise /Zc:wchar_t /Zc:forScope /Zc:inline /Fo"RELEASE\\" /Fd"RELEASE\VC140.PDB" /Gd /TP /analyze- D:\MACO\DOCUMENTS\MCOMP\GAMEENGINE - 06_12_2016\GAMEENGINE\GAMEOBJECTS\WORLD\3DWORLD.CPP
^I:\UNIVERSITY\YEAR 4\ADVANCED PROGRAMMING\CWK\GAMEENGINE - 07_12_2016\GAMEENGINE\ASTAR\ASTAR.CPP
/c /I.\INCLUDE /Zi /nologo /W3 /WX- /sdl /O2 /Oi /Oy- /GL /D _MBCS /Gm- /EHsc /MD /GS /Gy /fp:precise /Zc:wchar_t /Zc:forScope /Zc:inline /Fo"RELEASE\\" /Fd"RELEASE\VC140.PDB" /Gd /TP /analyze- I:\UNIVERSITY\YEAR 4\ADVANCED PROGRAMMING\CWK\GAMEENGINE - 07_12_2016\GAMEENGINE\ASTAR\ASTAR.CPP
^I:\UNIVERSITY\YEAR 4\ADVANCED PROGRAMMING\CWK\GAMEENGINE - 07_12_2016\GAMEENGINE\GAMEOBJECTS\CAMERA.CPP
/c /I.\INCLUDE /Zi /nologo /W3 /WX- /sdl /O2 /Oi /Oy- /GL /D _MBCS /Gm- /EHsc /MD /GS /Gy /fp:precise /Zc:wchar_t /Zc:forScope /Zc:inline /Fo"RELEASE\\" /Fd"RELEASE\VC140.PDB" /Gd /TP /analyze- I:\UNIVERSITY\YEAR 4\ADVANCED PROGRAMMING\CWK\GAMEENGINE - 07_12_2016\GAMEENGINE\GAMEOBJECTS\CAMERA.CPP
^I:\UNIVERSITY\YEAR 4\ADVANCED PROGRAMMING\CWK\GAMEENGINE - 07_12_2016\GAMEENGINE\GAMEOBJECTS\CAR\CAR.CPP
/c /I.\INCLUDE /Zi /nologo /W3 /WX- /sdl /O2 /Oi /Oy- /GL /D _MBCS /Gm- /EHsc /MD /GS /Gy /fp:precise /Zc:wchar_t /Zc:forScope /Zc:inline /Fo"RELEASE\\" /Fd"RELEASE\VC140.PDB" /Gd /TP /analyze- I:\UNIVERSITY\YEAR 4\ADVANCED PROGRAMMING\CWK\GAMEENGINE - 07_12_2016\GAMEENGINE\GAMEOBJECTS\CAR\CAR.CPP
^I:\UNIVERSITY\YEAR 4\ADVANCED PROGRAMMING\CWK\GAMEENGINE - 07_12_2016\GAMEENGINE\GAMEOBJECTS\MODELLIBRARY.CPP
/c /I.\INCLUDE /Zi /nologo /W3 /WX- /sdl /O2 /Oi /Oy- /GL /D _MBCS /Gm- /EHsc /MD /GS /Gy /fp:precise /Zc:wchar_t /Zc:forScope /Zc:inline /Fo"RELEASE\\" /Fd"RELEASE\VC140.PDB" /Gd /TP /analyze- I:\UNIVERSITY\YEAR 4\ADVANCED PROGRAMMING\CWK\GAMEENGINE - 07_12_2016\GAMEENGINE\GAMEOBJECTS\MODELLIBRARY.CPP
^I:\UNIVERSITY\YEAR 4\ADVANCED PROGRAMMING\CWK\GAMEENGINE - 07_12_2016\GAMEENGINE\GAMEOBJECTS\PRIMITIVES\MESH.CPP
/c /I.\INCLUDE /Zi /nologo /W3 /WX- /sdl /O2 /Oi /Oy- /GL /D _MBCS /Gm- /EHsc /MD /GS /Gy /fp:precise /Zc:wchar_t /Zc:forScope /Zc:inline /Fo"RELEASE\\" /Fd"RELEASE\VC140.PDB" /Gd /TP /analyze- I:\UNIVERSITY\YEAR 4\ADVANCED PROGRAMMING\CWK\GAMEENGINE - 07_12_2016\GAMEENGINE\GAMEOBJECTS\PRIMITIVES\MESH.CPP
^I:\UNIVERSITY\YEAR 4\ADVANCED PROGRAMMING\CWK\GAMEENGINE - 07_12_2016\GAMEENGINE\GAMEOBJECTS\PRIMITIVES\RAY.CPP
/c /I.\INCLUDE /Zi /nologo /W3 /WX- /sdl /O2 /Oi /Oy- /GL /D _MBCS /Gm- /EHsc /MD /GS /Gy /fp:precise /Zc:wchar_t /Zc:forScope /Zc:inline /Fo"RELEASE\\" /Fd"RELEASE\VC140.PDB" /Gd /TP /analyze- I:\UNIVERSITY\YEAR 4\ADVANCED PROGRAMMING\CWK\GAMEENGINE - 07_12_2016\GAMEENGINE\GAMEOBJECTS\PRIMITIVES\RAY.CPP
^I:\UNIVERSITY\YEAR 4\ADVANCED PROGRAMMING\CWK\GAMEENGINE - 07_12_2016\GAMEENGINE\GAMEOBJECTS\ROADS\CORNER.CPP
/c /I.\INCLUDE /Zi /nologo /W3 /WX- /sdl /O2 /Oi /Oy- /GL /D _MBCS /Gm- /EHsc /MD /GS /Gy /fp:precise /Zc:wchar_t /Zc:forScope /Zc:inline /Fo"RELEASE\\" /Fd"RELEASE\VC140.PDB" /Gd /TP /analyze- I:\UNIVERSITY\YEAR 4\ADVANCED PROGRAMMING\CWK\GAMEENGINE - 07_12_2016\GAMEENGINE\GAMEOBJECTS\ROADS\CORNER.CPP
^I:\UNIVERSITY\YEAR 4\ADVANCED PROGRAMMING\CWK\GAMEENGINE - 07_12_2016\GAMEENGINE\GAMEOBJECTS\ROADS\CROSSROAD.CPP
/c /I.\INCLUDE /Zi /nologo /W3 /WX- /sdl /O2 /Oi /Oy- /GL /D _MBCS /Gm- /EHsc /MD /GS /Gy /fp:precise /Zc:wchar_t /Zc:forScope /Zc:inline /Fo"RELEASE\\" /Fd"RELEASE\VC140.PDB" /Gd /TP /analyze- I:\UNIVERSITY\YEAR 4\ADVANCED PROGRAMMING\CWK\GAMEENGINE - 07_12_2016\GAMEENGINE\GAMEOBJECTS\ROADS\CROSSROAD.CPP
^I:\UNIVERSITY\YEAR 4\ADVANCED PROGRAMMING\CWK\GAMEENGINE - 07_12_2016\GAMEENGINE\GAMEOBJECTS\ROADS\EMPTY.CPP
/c /I.\INCLUDE /Zi /nologo /W3 /WX- /sdl /O2 /Oi /Oy- /GL /D _MBCS /Gm- /EHsc /MD /GS /Gy /fp:precise /Zc:wchar_t /Zc:forScope /Zc:inline /Fo"RELEASE\\" /Fd"RELEASE\VC140.PDB" /Gd /TP /analyze- I:\UNIVERSITY\YEAR 4\ADVANCED PROGRAMMING\CWK\GAMEENGINE - 07_12_2016\GAMEENGINE\GAMEOBJECTS\ROADS\EMPTY.CPP
^I:\UNIVERSITY\YEAR 4\ADVANCED PROGRAMMING\CWK\GAMEENGINE - 07_12_2016\GAMEENGINE\GAMEOBJECTS\ROADS\ROAD.CPP
/c /I.\INCLUDE /Zi /nologo /W3 /WX- /sdl /O2 /Oi /Oy- /GL /D _MBCS /Gm- /EHsc /MD /GS /Gy /fp:precise /Zc:wchar_t /Zc:forScope /Zc:inline /Fo"RELEASE\\" /Fd"RELEASE\VC140.PDB" /Gd /TP /analyze- I:\UNIVERSITY\YEAR 4\ADVANCED PROGRAMMING\CWK\GAMEENGINE - 07_12_2016\GAMEENGINE\GAMEOBJECTS\ROADS\ROAD.CPP
^I:\UNIVERSITY\YEAR 4\ADVANCED PROGRAMMING\CWK\GAMEENGINE - 07_12_2016\GAMEENGINE\GAMEOBJECTS\ROADS\ROADDETAILS.CPP
/c /I.\INCLUDE /Zi /nologo /W3 /WX- /sdl /O2 /Oi /Oy- /GL /D _MBCS /Gm- /EHsc /MD /GS /Gy /fp:precise /Zc:wchar_t /Zc:forScope /Zc:inline /Fo"RELEASE\\" /Fd"RELEASE\VC140.PDB" /Gd /TP /analyze- I:\UNIVERSITY\YEAR 4\ADVANCED PROGRAMMING\CWK\GAMEENGINE - 07_12_2016\GAMEENGINE\GAMEOBJECTS\ROADS\ROADDETAILS.CPP
^I:\UNIVERSITY\YEAR 4\ADVANCED PROGRAMMING\CWK\GAMEENGINE - 07_12_2016\GAMEENGINE\GAMEOBJECTS\ROADS\STRAIGHT.CPP
/c /I.\INCLUDE /Zi /nologo /W3 /WX- /sdl /O2 /Oi /Oy- /GL /D _MBCS /Gm- /EHsc /MD /GS /Gy /fp:precise /Zc:wchar_t /Zc:forScope /Zc:inline /Fo"RELEASE\\" /Fd"RELEASE\VC140.PDB" /Gd /TP /analyze- I:\UNIVERSITY\YEAR 4\ADVANCED PROGRAMMING\CWK\GAMEENGINE - 07_12_2016\GAMEENGINE\GAMEOBJECTS\ROADS\STRAIGHT.CPP
^I:\UNIVERSITY\YEAR 4\ADVANCED PROGRAMMING\CWK\GAMEENGINE - 07_12_2016\GAMEENGINE\GAMEOBJECTS\ROADS\TJUNC.CPP
/c /I.\INCLUDE /Zi /nologo /W3 /WX- /sdl /O2 /Oi /Oy- /GL /D _MBCS /Gm- /EHsc /MD /GS /Gy /fp:precise /Zc:wchar_t /Zc:forScope /Zc:inline /Fo"RELEASE\\" /Fd"RELEASE\VC140.PDB" /Gd /TP /analyze- I:\UNIVERSITY\YEAR 4\ADVANCED PROGRAMMING\CWK\GAMEENGINE - 07_12_2016\GAMEENGINE\GAMEOBJECTS\ROADS\TJUNC.CPP
^I:\UNIVERSITY\YEAR 4\ADVANCED PROGRAMMING\CWK\GAMEENGINE - 07_12_2016\GAMEENGINE\GAMEOBJECTS\WORLD\2DWORLD.CPP
/c /I.\INCLUDE /Zi /nologo /W3 /WX- /sdl /O2 /Oi /Oy- /GL /D _MBCS /Gm- /EHsc /MD /GS /Gy /fp:precise /Zc:wchar_t /Zc:forScope /Zc:inline /Fo"RELEASE\\" /Fd"RELEASE\VC140.PDB" /Gd /TP /analyze- I:\UNIVERSITY\YEAR 4\ADVANCED PROGRAMMING\CWK\GAMEENGINE - 07_12_2016\GAMEENGINE\GAMEOBJECTS\WORLD\2DWORLD.CPP
^I:\UNIVERSITY\YEAR 4\ADVANCED PROGRAMMING\CWK\GAMEENGINE - 07_12_2016\GAMEENGINE\GAMEOBJECTS\WORLD\3DWORLD.CPP
/c /I.\INCLUDE /Zi /nologo /W3 /WX- /sdl /O2 /Oi /Oy- /GL /D _MBCS /Gm- /EHsc /MD /GS /Gy /fp:precise /Zc:wchar_t /Zc:forScope /Zc:inline /Fo"RELEASE\\" /Fd"RELEASE\VC140.PDB" /Gd /TP /analyze- I:\UNIVERSITY\YEAR 4\ADVANCED PROGRAMMING\CWK\GAMEENGINE - 07_12_2016\GAMEENGINE\GAMEOBJECTS\WORLD\3DWORLD.CPP
^I:\UNIVERSITY\YEAR 4\ADVANCED PROGRAMMING\CWK\GAMEENGINE - 07_12_2016\GAMEENGINE\GUI\BUTTON.CPP
/c /I.\INCLUDE /Zi /nologo /W3 /WX- /sdl /O2 /Oi /Oy- /GL /D _MBCS /Gm- /EHsc /MD /GS /Gy /fp:precise /Zc:wchar_t /Zc:forScope /Zc:inline /Fo"RELEASE\\" /Fd"RELEASE\VC140.PDB" /Gd /TP /analyze- I:\UNIVERSITY\YEAR 4\ADVANCED PROGRAMMING\CWK\GAMEENGINE - 07_12_2016\GAMEENGINE\GUI\BUTTON.CPP
^I:\UNIVERSITY\YEAR 4\ADVANCED PROGRAMMING\CWK\GAMEENGINE - 07_12_2016\GAMEENGINE\GUI\GUI.CPP
/c /I.\INCLUDE /Zi /nologo /W3 /WX- /sdl /O2 /Oi /Oy- /GL /D _MBCS /Gm- /EHsc /MD /GS /Gy /fp:precise /Zc:wchar_t /Zc:forScope /Zc:inline /Fo"RELEASE\\" /Fd"RELEASE\VC140.PDB" /Gd /TP /analyze- I:\UNIVERSITY\YEAR 4\ADVANCED PROGRAMMING\CWK\GAMEENGINE - 07_12_2016\GAMEENGINE\GUI\GUI.CPP
^I:\UNIVERSITY\YEAR 4\ADVANCED PROGRAMMING\CWK\GAMEENGINE - 07_12_2016\GAMEENGINE\IO\DISPLAYWINDOW.CPP
/c /I.\INCLUDE /Zi /nologo /W3 /WX- /sdl /O2 /Oi /Oy- /GL /D _MBCS /Gm- /EHsc /MD /GS /Gy /fp:precise /Zc:wchar_t /Zc:forScope /Zc:inline /Fo"RELEASE\\" /Fd"RELEASE\VC140.PDB" /Gd /TP /analyze- I:\UNIVERSITY\YEAR 4\ADVANCED PROGRAMMING\CWK\GAMEENGINE - 07_12_2016\GAMEENGINE\IO\DISPLAYWINDOW.CPP
^I:\UNIVERSITY\YEAR 4\ADVANCED PROGRAMMING\CWK\GAMEENGINE - 07_12_2016\GAMEENGINE\MAPGEN\ROADMAPGEN.CPP
/c /I.\INCLUDE /Zi /nologo /W3 /WX- /sdl /O2 /Oi /Oy- /GL /D _MBCS /Gm- /EHsc /MD /GS /Gy /fp:precise /Zc:wchar_t /Zc:forScope /Zc:inline /Fo"RELEASE\\" /Fd"RELEASE\VC140.PDB" /Gd /TP /analyze- I:\UNIVERSITY\YEAR 4\ADVANCED PROGRAMMING\CWK\GAMEENGINE - 07_12_2016\GAMEENGINE\MAPGEN\ROADMAPGEN.CPP
^I:\UNIVERSITY\YEAR 4\ADVANCED PROGRAMMING\CWK\GAMEENGINE - 07_12_2016\GAMEENGINE\OBJECTLOADING\ASSIMP\ASSIMPMODEL.CPP
/c /I.\INCLUDE /Zi /nologo /W3 /WX- /sdl /O2 /Oi /Oy- /GL /D _MBCS /Gm- /EHsc /MD /GS /Gy /fp:precise /Zc:wchar_t /Zc:forScope /Zc:inline /Fo"RELEASE\\" /Fd"RELEASE\VC140.PDB" /Gd /TP /analyze- I:\UNIVERSITY\YEAR 4\ADVANCED PROGRAMMING\CWK\GAMEENGINE - 07_12_2016\GAMEENGINE\OBJECTLOADING\ASSIMP\ASSIMPMODEL.CPP
^I:\UNIVERSITY\YEAR 4\ADVANCED PROGRAMMING\CWK\GAMEENGINE - 07_12_2016\GAMEENGINE\OBJECTLOADING\ASSIMP\ASSIMPTEXTURE.CPP
/c /I.\INCLUDE /Zi /nologo /W3 /WX- /sdl /O2 /Oi /Oy- /GL /D _MBCS /Gm- /EHsc /MD /GS /Gy /fp:precise /Zc:wchar_t /Zc:forScope /Zc:inline /Fo"RELEASE\\" /Fd"RELEASE\VC140.PDB" /Gd /TP /analyze- I:\UNIVERSITY\YEAR 4\ADVANCED PROGRAMMING\CWK\GAMEENGINE - 07_12_2016\GAMEENGINE\OBJECTLOADING\ASSIMP\ASSIMPTEXTURE.CPP
^I:\UNIVERSITY\YEAR 4\ADVANCED PROGRAMMING\CWK\GAMEENGINE - 07_12_2016\GAMEENGINE\OBJECTLOADING\ASSIMP\VERTEXBUFFER.CPP
/c /I.\INCLUDE /Zi /nologo /W3 /WX- /sdl /O2 /Oi /Oy- /GL /D _MBCS /Gm- /EHsc /MD /GS /Gy /fp:precise /Zc:wchar_t /Zc:forScope /Zc:inline /Fo"RELEASE\\" /Fd"RELEASE\VC140.PDB" /Gd /TP /analyze- I:\UNIVERSITY\YEAR 4\ADVANCED PROGRAMMING\CWK\GAMEENGINE - 07_12_2016\GAMEENGINE\OBJECTLOADING\ASSIMP\VERTEXBUFFER.CPP
^I:\UNIVERSITY\YEAR 4\ADVANCED PROGRAMMING\CWK\GAMEENGINE - 07_12_2016\GAMEENGINE\OBJECTLOADING\OBJ_LOADER.CPP
/c /I.\INCLUDE /Zi /nologo /W3 /WX- /sdl /O2 /Oi /Oy- /GL /D _MBCS /Gm- /EHsc /MD /GS /Gy /fp:precise /Zc:wchar_t /Zc:forScope /Zc:inline /Fo"RELEASE\\" /Fd"RELEASE\VC140.PDB" /Gd /TP /analyze- I:\UNIVERSITY\YEAR 4\ADVANCED PROGRAMMING\CWK\GAMEENGINE - 07_12_2016\GAMEENGINE\OBJECTLOADING\OBJ_LOADER.CPP
^I:\UNIVERSITY\YEAR 4\ADVANCED PROGRAMMING\CWK\GAMEENGINE - 07_12_2016\GAMEENGINE\OBJECTLOADING\TEXTURE.CPP
/c /I.\INCLUDE /Zi /nologo /W3 /WX- /sdl /O2 /Oi /Oy- /GL /D _MBCS /Gm- /EHsc /MD /GS /Gy /fp:precise /Zc:wchar_t /Zc:forScope /Zc:inline /Fo"RELEASE\\" /Fd"RELEASE\VC140.PDB" /Gd /TP /analyze- I:\UNIVERSITY\YEAR 4\ADVANCED PROGRAMMING\CWK\GAMEENGINE - 07_12_2016\GAMEENGINE\OBJECTLOADING\TEXTURE.CPP
^I:\UNIVERSITY\YEAR 4\ADVANCED PROGRAMMING\CWK\GAMEENGINE - 07_12_2016\GAMEENGINE\OPENGLHELPER.CPP
/c /I.\INCLUDE /Zi /nologo /W3 /WX- /sdl /O2 /Oi /Oy- /GL /D _MBCS /Gm- /EHsc /MD /GS /Gy /fp:precise /Zc:wchar_t /Zc:forScope /Zc:inline /Fo"RELEASE\\" /Fd"RELEASE\VC140.PDB" /Gd /TP /analyze- I:\UNIVERSITY\YEAR 4\ADVANCED PROGRAMMING\CWK\GAMEENGINE - 07_12_2016\GAMEENGINE\OPENGLHELPER.CPP
^I:\UNIVERSITY\YEAR 4\ADVANCED PROGRAMMING\CWK\GAMEENGINE - 07_12_2016\GAMEENGINE\SHADER\SHADER.CPP
/c /I.\INCLUDE /Zi /nologo /W3 /WX- /sdl /O2 /Oi /Oy- /GL /D _MBCS /Gm- /EHsc /MD /GS /Gy /fp:precise /Zc:wchar_t /Zc:forScope /Zc:inline /Fo"RELEASE\\" /Fd"RELEASE\VC140.PDB" /Gd /TP /analyze- I:\UNIVERSITY\YEAR 4\ADVANCED PROGRAMMING\CWK\GAMEENGINE - 07_12_2016\GAMEENGINE\SHADER\SHADER.CPP
^I:\UNIVERSITY\YEAR 4\ADVANCED PROGRAMMING\CWK\GAMEENGINE - 07_12_2016\GAMEENGINE\OBJECTLOADING\STB_IMAGE.C
/c /I.\INCLUDE /Zi /nologo /W3 /WX- /sdl /O2 /Oi /Oy- /GL /D _MBCS /Gm- /EHsc /MD /GS /Gy /fp:precise /Zc:wchar_t /Zc:forScope /Zc:inline /Fo"RELEASE\\" /Fd"RELEASE\VC140.PDB" /Gd /TC /analyze- I:\UNIVERSITY\YEAR 4\ADVANCED PROGRAMMING\CWK\GAMEENGINE - 07_12_2016\GAMEENGINE\OBJECTLOADING\STB_IMAGE.C
^I:\UNIVERSITY\YEAR 4\ADVANCED PROGRAMMING\CWK\GAMEENGINE - 07_12_2016\GAMEENGINE\GAMEENGINE.CPP
/c /I.\INCLUDE /Zi /nologo /W3 /WX- /sdl /O2 /Oi /Oy- /GL /D _MBCS /Gm- /EHsc /MD /GS /Gy /fp:precise /Zc:wchar_t /Zc:forScope /Zc:inline /Fo"RELEASE\\" /Fd"RELEASE\VC140.PDB" /Gd /TP /analyze- I:\UNIVERSITY\YEAR 4\ADVANCED PROGRAMMING\CWK\GAMEENGINE - 07_12_2016\GAMEENGINE\GAMEENGINE.CPP
^E:\UNIVERSITY\YEAR 4\ADVANCED PROGRAMMING\CWK\GAMEENGINE - 07_12_2016\GAMEENGINE\ASTAR\ASTAR.CPP
/c /I.\INCLUDE /Zi /nologo /W3 /WX- /sdl /O2 /Oi /Oy- /GL /D _MBCS /Gm- /EHsc /MD /GS /Gy /fp:precise /Zc:wchar_t /Zc:forScope /Zc:inline /Fo"RELEASE\\" /Fd"RELEASE\VC140.PDB" /Gd /TP /analyze- E:\UNIVERSITY\YEAR 4\ADVANCED PROGRAMMING\CWK\GAMEENGINE - 07_12_2016\GAMEENGINE\ASTAR\ASTAR.CPP
^E:\UNIVERSITY\YEAR 4\ADVANCED PROGRAMMING\CWK\GAMEENGINE - 07_12_2016\GAMEENGINE\GAMEOBJECTS\CAR\CAR.CPP
/c /I.\INCLUDE /Zi /nologo /W3 /WX- /sdl /O2 /Oi /Oy- /GL /D _MBCS /Gm- /EHsc /MD /GS /Gy /fp:precise /Zc:wchar_t /Zc:forScope /Zc:inline /Fo"RELEASE\\" /Fd"RELEASE\VC140.PDB" /Gd /TP /analyze- E:\UNIVERSITY\YEAR 4\ADVANCED PROGRAMMING\CWK\GAMEENGINE - 07_12_2016\GAMEENGINE\GAMEOBJECTS\CAR\CAR.CPP
^E:\UNIVERSITY\YEAR 4\ADVANCED PROGRAMMING\CWK\GAMEENGINE - 07_12_2016\GAMEENGINE\GAMEOBJECTS\PRIMITIVES\MESH.CPP
/c /I.\INCLUDE /Zi /nologo /W3 /WX- /sdl /O2 /Oi /Oy- /GL /D _MBCS /Gm- /EHsc /MD /GS /Gy /fp:precise /Zc:wchar_t /Zc:forScope /Zc:inline /Fo"RELEASE\\" /Fd"RELEASE\VC140.PDB" /Gd /TP /analyze- E:\UNIVERSITY\YEAR 4\ADVANCED PROGRAMMING\CWK\GAMEENGINE - 07_12_2016\GAMEENGINE\GAMEOBJECTS\PRIMITIVES\MESH.CPP
^E:\UNIVERSITY\YEAR 4\ADVANCED PROGRAMMING\CWK\GAMEENGINE - 07_12_2016\GAMEENGINE\GAMEOBJECTS\PRIMITIVES\RAY.CPP
/c /I.\INCLUDE /Zi /nologo /W3 /WX- /sdl /O2 /Oi /Oy- /GL /D _MBCS /Gm- /EHsc /MD /GS /Gy /fp:precise /Zc:wchar_t /Zc:forScope /Zc:inline /Fo"RELEASE\\" /Fd"RELEASE\VC140.PDB" /Gd /TP /analyze- E:\UNIVERSITY\YEAR 4\ADVANCED PROGRAMMING\CWK\GAMEENGINE - 07_12_2016\GAMEENGINE\GAMEOBJECTS\PRIMITIVES\RAY.CPP
^E:\UNIVERSITY\YEAR 4\ADVANCED PROGRAMMING\CWK\GAMEENGINE - 07_12_2016\GAMEENGINE\GAMEOBJECTS\ROADS\CORNER.CPP
/c /I.\INCLUDE /Zi /nologo /W3 /WX- /sdl /O2 /Oi /Oy- /GL /D _MBCS /Gm- /EHsc /MD /GS /Gy /fp:precise /Zc:wchar_t /Zc:forScope /Zc:inline /Fo"RELEASE\\" /Fd"RELEASE\VC140.PDB" /Gd /TP /analyze- E:\UNIVERSITY\YEAR 4\ADVANCED PROGRAMMING\CWK\GAMEENGINE - 07_12_2016\GAMEENGINE\GAMEOBJECTS\ROADS\CORNER.CPP
^E:\UNIVERSITY\YEAR 4\ADVANCED PROGRAMMING\CWK\GAMEENGINE - 07_12_2016\GAMEENGINE\GAMEOBJECTS\ROADS\CROSSROAD.CPP
/c /I.\INCLUDE /Zi /nologo /W3 /WX- /sdl /O2 /Oi /Oy- /GL /D _MBCS /Gm- /EHsc /MD /GS /Gy /fp:precise /Zc:wchar_t /Zc:forScope /Zc:inline /Fo"RELEASE\\" /Fd"RELEASE\VC140.PDB" /Gd /TP /analyze- E:\UNIVERSITY\YEAR 4\ADVANCED PROGRAMMING\CWK\GAMEENGINE - 07_12_2016\GAMEENGINE\GAMEOBJECTS\ROADS\CROSSROAD.CPP
^E:\UNIVERSITY\YEAR 4\ADVANCED PROGRAMMING\CWK\GAMEENGINE - 07_12_2016\GAMEENGINE\GAMEOBJECTS\ROADS\EMPTY.CPP
/c /I.\INCLUDE /Zi /nologo /W3 /WX- /sdl /O2 /Oi /Oy- /GL /D _MBCS /Gm- /EHsc /MD /GS /Gy /fp:precise /Zc:wchar_t /Zc:forScope /Zc:inline /Fo"RELEASE\\" /Fd"RELEASE\VC140.PDB" /Gd /TP /analyze- E:\UNIVERSITY\YEAR 4\ADVANCED PROGRAMMING\CWK\GAMEENGINE - 07_12_2016\GAMEENGINE\GAMEOBJECTS\ROADS\EMPTY.CPP
^E:\UNIVERSITY\YEAR 4\ADVANCED PROGRAMMING\CWK\GAMEENGINE - 07_12_2016\GAMEENGINE\GAMEOBJECTS\ROADS\ROAD.CPP
/c /I.\INCLUDE /Zi /nologo /W3 /WX- /sdl /O2 /Oi /Oy- /GL /D _MBCS /Gm- /EHsc /MD /GS /Gy /fp:precise /Zc:wchar_t /Zc:forScope /Zc:inline /Fo"RELEASE\\" /Fd"RELEASE\VC140.PDB" /Gd /TP /analyze- E:\UNIVERSITY\YEAR 4\ADVANCED PROGRAMMING\CWK\GAMEENGINE - 07_12_2016\GAMEENGINE\GAMEOBJECTS\ROADS\ROAD.CPP
^E:\UNIVERSITY\YEAR 4\ADVANCED PROGRAMMING\CWK\GAMEENGINE - 07_12_2016\GAMEENGINE\GAMEOBJECTS\ROADS\ROADDETAILS.CPP
/c /I.\INCLUDE /Zi /nologo /W3 /WX- /sdl /O2 /Oi /Oy- /GL /D _MBCS /Gm- /EHsc /MD /GS /Gy /fp:precise /Zc:wchar_t /Zc:forScope /Zc:inline /Fo"RELEASE\\" /Fd"RELEASE\VC140.PDB" /Gd /TP /analyze- E:\UNIVERSITY\YEAR 4\ADVANCED PROGRAMMING\CWK\GAMEENGINE - 07_12_2016\GAMEENGINE\GAMEOBJECTS\ROADS\ROADDETAILS.CPP
^E:\UNIVERSITY\YEAR 4\ADVANCED PROGRAMMING\CWK\GAMEENGINE - 07_12_2016\GAMEENGINE\GAMEOBJECTS\ROADS\STRAIGHT.CPP
/c /I.\INCLUDE /Zi /nologo /W3 /WX- /sdl /O2 /Oi /Oy- /GL /D _MBCS /Gm- /EHsc /MD /GS /Gy /fp:precise /Zc:wchar_t /Zc:forScope /Zc:inline /Fo"RELEASE\\" /Fd"RELEASE\VC140.PDB" /Gd /TP /analyze- E:\UNIVERSITY\YEAR 4\ADVANCED PROGRAMMING\CWK\GAMEENGINE - 07_12_2016\GAMEENGINE\GAMEOBJECTS\ROADS\STRAIGHT.CPP
^E:\UNIVERSITY\YEAR 4\ADVANCED PROGRAMMING\CWK\GAMEENGINE - 07_12_2016\GAMEENGINE\GAMEOBJECTS\ROADS\TJUNC.CPP
/c /I.\INCLUDE /Zi /nologo /W3 /WX- /sdl /O2 /Oi /Oy- /GL /D _MBCS /Gm- /EHsc /MD /GS /Gy /fp:precise /Zc:wchar_t /Zc:forScope /Zc:inline /Fo"RELEASE\\" /Fd"RELEASE\VC140.PDB" /Gd /TP /analyze- E:\UNIVERSITY\YEAR 4\ADVANCED PROGRAMMING\CWK\GAMEENGINE - 07_12_2016\GAMEENGINE\GAMEOBJECTS\ROADS\TJUNC.CPP
^E:\UNIVERSITY\YEAR 4\ADVANCED PROGRAMMING\CWK\GAMEENGINE - 07_12_2016\GAMEENGINE\GUI\BUTTON.CPP
/c /I.\INCLUDE /Zi /nologo /W3 /WX- /sdl /O2 /Oi /Oy- /GL /D _MBCS /Gm- /EHsc /MD /GS /Gy /fp:precise /Zc:wchar_t /Zc:forScope /Zc:inline /Fo"RELEASE\\" /Fd"RELEASE\VC140.PDB" /Gd /TP /analyze- E:\UNIVERSITY\YEAR 4\ADVANCED PROGRAMMING\CWK\GAMEENGINE - 07_12_2016\GAMEENGINE\GUI\BUTTON.CPP
^E:\UNIVERSITY\YEAR 4\ADVANCED PROGRAMMING\CWK\GAMEENGINE - 07_12_2016\GAMEENGINE\GUI\GUI.CPP
/c /I.\INCLUDE /Zi /nologo /W3 /WX- /sdl /O2 /Oi /Oy- /GL /D _MBCS /Gm- /EHsc /MD /GS /Gy /fp:precise /Zc:wchar_t /Zc:forScope /Zc:inline /Fo"RELEASE\\" /Fd"RELEASE\VC140.PDB" /Gd /TP /analyze- E:\UNIVERSITY\YEAR 4\ADVANCED PROGRAMMING\CWK\GAMEENGINE - 07_12_2016\GAMEENGINE\GUI\GUI.CPP
^E:\UNIVERSITY\YEAR 4\ADVANCED PROGRAMMING\CWK\GAMEENGINE - 07_12_2016\GAMEENGINE\MAPGEN\ROADMAPGEN.CPP
/c /I.\INCLUDE /Zi /nologo /W3 /WX- /sdl /O2 /Oi /Oy- /GL /D _MBCS /Gm- /EHsc /MD /GS /Gy /fp:precise /Zc:wchar_t /Zc:forScope /Zc:inline /Fo"RELEASE\\" /Fd"RELEASE\VC140.PDB" /Gd /TP /analyze- E:\UNIVERSITY\YEAR 4\ADVANCED PROGRAMMING\CWK\GAMEENGINE - 07_12_2016\GAMEENGINE\MAPGEN\ROADMAPGEN.CPP
^E:\UNIVERSITY\YEAR 4\ADVANCED PROGRAMMING\CWK\GAMEENGINE - 07_12_2016\GAMEENGINE\OBJECTLOADING\ASSIMP\ASSIMPMODEL.CPP
/c /I.\INCLUDE /Zi /nologo /W3 /WX- /sdl /O2 /Oi /Oy- /GL /D _MBCS /Gm- /EHsc /MD /GS /Gy /fp:precise /Zc:wchar_t /Zc:forScope /Zc:inline /Fo"RELEASE\\" /Fd"RELEASE\VC140.PDB" /Gd /TP /analyze- E:\UNIVERSITY\YEAR 4\ADVANCED PROGRAMMING\CWK\GAMEENGINE - 07_12_2016\GAMEENGINE\OBJECTLOADING\ASSIMP\ASSIMPMODEL.CPP
^E:\UNIVERSITY\YEAR 4\ADVANCED PROGRAMMING\CWK\GAMEENGINE - 07_12_2016\GAMEENGINE\OBJECTLOADING\ASSIMP\ASSIMPTEXTURE.CPP
/c /I.\INCLUDE /Zi /nologo /W3 /WX- /sdl /O2 /Oi /Oy- /GL /D _MBCS /Gm- /EHsc /MD /GS /Gy /fp:precise /Zc:wchar_t /Zc:forScope /Zc:inline /Fo"RELEASE\\" /Fd"RELEASE\VC140.PDB" /Gd /TP /analyze- E:\UNIVERSITY\YEAR 4\ADVANCED PROGRAMMING\CWK\GAMEENGINE - 07_12_2016\GAMEENGINE\OBJECTLOADING\ASSIMP\ASSIMPTEXTURE.CPP
^E:\UNIVERSITY\YEAR 4\ADVANCED PROGRAMMING\CWK\GAMEENGINE - 07_12_2016\GAMEENGINE\OBJECTLOADING\ASSIMP\VERTEXBUFFER.CPP
/c /I.\INCLUDE /Zi /nologo /W3 /WX- /sdl /O2 /Oi /Oy- /GL /D _MBCS /Gm- /EHsc /MD /GS /Gy /fp:precise /Zc:wchar_t /Zc:forScope /Zc:inline /Fo"RELEASE\\" /Fd"RELEASE\VC140.PDB" /Gd /TP /analyze- E:\UNIVERSITY\YEAR 4\ADVANCED PROGRAMMING\CWK\GAMEENGINE - 07_12_2016\GAMEENGINE\OBJECTLOADING\ASSIMP\VERTEXBUFFER.CPP
^E:\UNIVERSITY\YEAR 4\ADVANCED PROGRAMMING\CWK\GAMEENGINE - 07_12_2016\GAMEENGINE\OBJECTLOADING\OBJ_LOADER.CPP
/c /I.\INCLUDE /Zi /nologo /W3 /WX- /sdl /O2 /Oi /Oy- /GL /D _MBCS /Gm- /EHsc /MD /GS /Gy /fp:precise /Zc:wchar_t /Zc:forScope /Zc:inline /Fo"RELEASE\\" /Fd"RELEASE\VC140.PDB" /Gd /TP /analyze- E:\UNIVERSITY\YEAR 4\ADVANCED PROGRAMMING\CWK\GAMEENGINE - 07_12_2016\GAMEENGINE\OBJECTLOADING\OBJ_LOADER.CPP
^E:\UNIVERSITY\YEAR 4\ADVANCED PROGRAMMING\CWK\GAMEENGINE - 07_12_2016\GAMEENGINE\OBJECTLOADING\TEXTURE.CPP
/c /I.\INCLUDE /Zi /nologo /W3 /WX- /sdl /O2 /Oi /Oy- /GL /D _MBCS /Gm- /EHsc /MD /GS /Gy /fp:precise /Zc:wchar_t /Zc:forScope /Zc:inline /Fo"RELEASE\\" /Fd"RELEASE\VC140.PDB" /Gd /TP /analyze- E:\UNIVERSITY\YEAR 4\ADVANCED PROGRAMMING\CWK\GAMEENGINE - 07_12_2016\GAMEENGINE\OBJECTLOADING\TEXTURE.CPP
^E:\UNIVERSITY\YEAR 4\ADVANCED PROGRAMMING\CWK\GAMEENGINE - 07_12_2016\GAMEENGINE\OPENGLHELPER.CPP
/c /I.\INCLUDE /Zi /nologo /W3 /WX- /sdl /O2 /Oi /Oy- /GL /D _MBCS /Gm- /EHsc /MD /GS /Gy /fp:precise /Zc:wchar_t /Zc:forScope /Zc:inline /Fo"RELEASE\\" /Fd"RELEASE\VC140.PDB" /Gd /TP /analyze- E:\UNIVERSITY\YEAR 4\ADVANCED PROGRAMMING\CWK\GAMEENGINE - 07_12_2016\GAMEENGINE\OPENGLHELPER.CPP
^E:\UNIVERSITY\YEAR 4\ADVANCED PROGRAMMING\CWK\GAMEENGINE - 07_12_2016\GAMEENGINE\SHADER\SHADER.CPP
/c /I.\INCLUDE /Zi /nologo /W3 /WX- /sdl /O2 /Oi /Oy- /GL /D _MBCS /Gm- /EHsc /MD /GS /Gy /fp:precise /Zc:wchar_t /Zc:forScope /Zc:inline /Fo"RELEASE\\" /Fd"RELEASE\VC140.PDB" /Gd /TP /analyze- E:\UNIVERSITY\YEAR 4\ADVANCED PROGRAMMING\CWK\GAMEENGINE - 07_12_2016\GAMEENGINE\SHADER\SHADER.CPP
^E:\UNIVERSITY\YEAR 4\ADVANCED PROGRAMMING\CWK\GAMEENGINE - 07_12_2016\GAMEENGINE\OBJECTLOADING\STB_IMAGE.C
/c /I.\INCLUDE /Zi /nologo /W3 /WX- /sdl /O2 /Oi /Oy- /GL /D _MBCS /Gm- /EHsc /MD /GS /Gy /fp:precise /Zc:wchar_t /Zc:forScope /Zc:inline /Fo"RELEASE\\" /Fd"RELEASE\VC140.PDB" /Gd /TC /analyze- E:\UNIVERSITY\YEAR 4\ADVANCED PROGRAMMING\CWK\GAMEENGINE - 07_12_2016\GAMEENGINE\OBJECTLOADING\STB_IMAGE.C
^E:\UNIVERSITY\YEAR 4\ADVANCED PROGRAMMING\CWK\GAMEENGINE - 07_12_2016\GAMEENGINE\IO\DISPLAYWINDOW.CPP
/c /I.\INCLUDE /Zi /nologo /W3 /WX- /sdl /O2 /Oi /Oy- /GL /D _MBCS /Gm- /EHsc /MD /GS /Gy /fp:precise /Zc:wchar_t /Zc:forScope /Zc:inline /Fo"RELEASE\\" /Fd"RELEASE\VC140.PDB" /Gd /TP /analyze- E:\UNIVERSITY\YEAR 4\ADVANCED PROGRAMMING\CWK\GAMEENGINE - 07_12_2016\GAMEENGINE\IO\DISPLAYWINDOW.CPP
^E:\UNIVERSITY\YEAR 4\ADVANCED PROGRAMMING\CWK\GAMEENGINE - 07_12_2016\GAMEENGINE\GAMEOBJECTS\WORLD\3DWORLD.CPP
/c /I.\INCLUDE /Zi /nologo /W3 /WX- /sdl /O2 /Oi /Oy- /GL /D _MBCS /Gm- /EHsc /MD /GS /Gy /fp:precise /Zc:wchar_t /Zc:forScope /Zc:inline /Fo"RELEASE\\" /Fd"RELEASE\VC140.PDB" /Gd /TP /analyze- E:\UNIVERSITY\YEAR 4\ADVANCED PROGRAMMING\CWK\GAMEENGINE - 07_12_2016\GAMEENGINE\GAMEOBJECTS\WORLD\3DWORLD.CPP
^E:\UNIVERSITY\YEAR 4\ADVANCED PROGRAMMING\CWK\GAMEENGINE - 07_12_2016\GAMEENGINE\GAMEOBJECTS\MODELLIBRARY.CPP
/c /I.\INCLUDE /Zi /nologo /W3 /WX- /sdl /O2 /Oi /Oy- /GL /D _MBCS /Gm- /EHsc /MD /GS /Gy /fp:precise /Zc:wchar_t /Zc:forScope /Zc:inline /Fo"RELEASE\\" /Fd"RELEASE\VC140.PDB" /Gd /TP /analyze- E:\UNIVERSITY\YEAR 4\ADVANCED PROGRAMMING\CWK\GAMEENGINE - 07_12_2016\GAMEENGINE\GAMEOBJECTS\MODELLIBRARY.CPP
^E:\UNIVERSITY\YEAR 4\ADVANCED PROGRAMMING\CWK\GAMEENGINE - 07_12_2016\GAMEENGINE\GAMEOBJECTS\CAMERA.CPP
/c /I.\INCLUDE /Zi /nologo /W3 /WX- /sdl /O2 /Oi /Oy- /GL /D _MBCS /Gm- /EHsc /MD /GS /Gy /fp:precise /Zc:wchar_t /Zc:forScope /Zc:inline /Fo"RELEASE\\" /Fd"RELEASE\VC140.PDB" /Gd /TP /analyze- E:\UNIVERSITY\YEAR 4\ADVANCED PROGRAMMING\CWK\GAMEENGINE - 07_12_2016\GAMEENGINE\GAMEOBJECTS\CAMERA.CPP
^E:\UNIVERSITY\YEAR 4\ADVANCED PROGRAMMING\CWK\GAMEENGINE - 07_12_2016\GAMEENGINE\GAMEENGINE.CPP
/c /I.\INCLUDE /Zi /nologo /W3 /WX- /sdl /O2 /Oi /Oy- /GL /D _MBCS /Gm- /EHsc /MD /GS /Gy /fp:precise /Zc:wchar_t /Zc:forScope /Zc:inline /Fo"RELEASE\\" /Fd"RELEASE\VC140.PDB" /Gd /TP /analyze- E:\UNIVERSITY\YEAR 4\ADVANCED PROGRAMMING\CWK\GAMEENGINE - 07_12_2016\GAMEENGINE\GAMEENGINE.CPP
^E:\UNIVERSITY\YEAR 4\ADVANCED PROGRAMMING\CWK\GAMEENGINE - 07_12_2016\GAMEENGINE\GAMEOBJECTS\WORLD\2DWORLD.CPP
/c /I.\INCLUDE /Zi /nologo /W3 /WX- /sdl /O2 /Oi /Oy- /GL /D _MBCS /Gm- /EHsc /MD /GS /Gy /fp:precise /Zc:wchar_t /Zc:forScope /Zc:inline /Fo"RELEASE\\" /Fd"RELEASE\VC140.PDB" /Gd /TP /analyze- E:\UNIVERSITY\YEAR 4\ADVANCED PROGRAMMING\CWK\GAMEENGINE - 07_12_2016\GAMEENGINE\GAMEOBJECTS\WORLD\2DWORLD.CPP
^E:\UNIVERSITY\YEAR 4\ADVANCED PROGRAMMING\CWK\TRAFFIC SIMULATOR 2017\GAMEENGINE\GAMEOBJECTS\CAMERA.CPP
/c /I.\INCLUDE /Zi /nologo /W3 /WX- /sdl /O2 /Oi /Oy- /GL /D _MBCS /Gm- /EHsc /MD /GS /Gy /fp:precise /Zc:wchar_t /Zc:forScope /Zc:inline /Fo"RELEASE\\" /Fd"RELEASE\VC140.PDB" /Gd /TP /analyze- E:\UNIVERSITY\YEAR 4\ADVANCED PROGRAMMING\CWK\TRAFFIC SIMULATOR 2017\GAMEENGINE\GAMEOBJECTS\CAMERA.CPP
^E:\UNIVERSITY\YEAR 4\ADVANCED PROGRAMMING\CWK\TRAFFIC SIMULATOR 2017\GAMEENGINE\GAMEOBJECTS\PRIMITIVES\MESH.CPP
/c /I.\INCLUDE /Zi /nologo /W3 /WX- /sdl /O2 /Oi /Oy- /GL /D _MBCS /Gm- /EHsc /MD /GS /Gy /fp:precise /Zc:wchar_t /Zc:forScope /Zc:inline /Fo"RELEASE\\" /Fd"RELEASE\VC140.PDB" /Gd /TP /analyze- E:\UNIVERSITY\YEAR 4\ADVANCED PROGRAMMING\CWK\TRAFFIC SIMULATOR 2017\GAMEENGINE\GAMEOBJECTS\PRIMITIVES\MESH.CPP
^E:\UNIVERSITY\YEAR 4\ADVANCED PROGRAMMING\CWK\TRAFFIC SIMULATOR 2017\GAMEENGINE\GAMEOBJECTS\PRIMITIVES\RAY.CPP
/c /I.\INCLUDE /Zi /nologo /W3 /WX- /sdl /O2 /Oi /Oy- /GL /D _MBCS /Gm- /EHsc /MD /GS /Gy /fp:precise /Zc:wchar_t /Zc:forScope /Zc:inline /Fo"RELEASE\\" /Fd"RELEASE\VC140.PDB" /Gd /TP /analyze- E:\UNIVERSITY\YEAR 4\ADVANCED PROGRAMMING\CWK\TRAFFIC SIMULATOR 2017\GAMEENGINE\GAMEOBJECTS\PRIMITIVES\RAY.CPP
^E:\UNIVERSITY\YEAR 4\ADVANCED PROGRAMMING\CWK\TRAFFIC SIMULATOR 2017\GAMEENGINE\GUI\BUTTON.CPP
/c /I.\INCLUDE /Zi /nologo /W3 /WX- /sdl /O2 /Oi /Oy- /GL /D _MBCS /Gm- /EHsc /MD /GS /Gy /fp:precise /Zc:wchar_t /Zc:forScope /Zc:inline /Fo"RELEASE\\" /Fd"RELEASE\VC140.PDB" /Gd /TP /analyze- E:\UNIVERSITY\YEAR 4\ADVANCED PROGRAMMING\CWK\TRAFFIC SIMULATOR 2017\GAMEENGINE\GUI\BUTTON.CPP
^E:\UNIVERSITY\YEAR 4\ADVANCED PROGRAMMING\CWK\TRAFFIC SIMULATOR 2017\GAMEENGINE\GUI\GUI.CPP
/c /I.\INCLUDE /Zi /nologo /W3 /WX- /sdl /O2 /Oi /Oy- /GL /D _MBCS /Gm- /EHsc /MD /GS /Gy /fp:precise /Zc:wchar_t /Zc:forScope /Zc:inline /Fo"RELEASE\\" /Fd"RELEASE\VC140.PDB" /Gd /TP /analyze- E:\UNIVERSITY\YEAR 4\ADVANCED PROGRAMMING\CWK\TRAFFIC SIMULATOR 2017\GAMEENGINE\GUI\GUI.CPP
^E:\UNIVERSITY\YEAR 4\ADVANCED PROGRAMMING\CWK\TRAFFIC SIMULATOR 2017\GAMEENGINE\IO\DISPLAYWINDOW.CPP
/c /I.\INCLUDE /Zi /nologo /W3 /WX- /sdl /O2 /Oi /Oy- /GL /D _MBCS /Gm- /EHsc /MD /GS /Gy /fp:precise /Zc:wchar_t /Zc:forScope /Zc:inline /Fo"RELEASE\\" /Fd"RELEASE\VC140.PDB" /Gd /TP /analyze- E:\UNIVERSITY\YEAR 4\ADVANCED PROGRAMMING\CWK\TRAFFIC SIMULATOR 2017\GAMEENGINE\IO\DISPLAYWINDOW.CPP
^E:\UNIVERSITY\YEAR 4\ADVANCED PROGRAMMING\CWK\TRAFFIC SIMULATOR 2017\GAMEENGINE\MAPGEN\ROADMAPGEN.CPP
/c /I.\INCLUDE /Zi /nologo /W3 /WX- /sdl /O2 /Oi /Oy- /GL /D _MBCS /Gm- /EHsc /MD /GS /Gy /fp:precise /Zc:wchar_t /Zc:forScope /Zc:inline /Fo"RELEASE\\" /Fd"RELEASE\VC140.PDB" /Gd /TP /analyze- E:\UNIVERSITY\YEAR 4\ADVANCED PROGRAMMING\CWK\TRAFFIC SIMULATOR 2017\GAMEENGINE\MAPGEN\ROADMAPGEN.CPP
^E:\UNIVERSITY\YEAR 4\ADVANCED PROGRAMMING\CWK\TRAFFIC SIMULATOR 2017\GAMEENGINE\OBJECTLOADING\OBJ_LOADER.CPP
/c /I.\INCLUDE /Zi /nologo /W3 /WX- /sdl /O2 /Oi /Oy- /GL /D _MBCS /Gm- /EHsc /MD /GS /Gy /fp:precise /Zc:wchar_t /Zc:forScope /Zc:inline /Fo"RELEASE\\" /Fd"RELEASE\VC140.PDB" /Gd /TP /analyze- E:\UNIVERSITY\YEAR 4\ADVANCED PROGRAMMING\CWK\TRAFFIC SIMULATOR 2017\GAMEENGINE\OBJECTLOADING\OBJ_LOADER.CPP
^E:\UNIVERSITY\YEAR 4\ADVANCED PROGRAMMING\CWK\TRAFFIC SIMULATOR 2017\GAMEENGINE\OBJECTLOADING\TEXTURE.CPP
/c /I.\INCLUDE /Zi /nologo /W3 /WX- /sdl /O2 /Oi /Oy- /GL /D _MBCS /Gm- /EHsc /MD /GS /Gy /fp:precise /Zc:wchar_t /Zc:forScope /Zc:inline /Fo"RELEASE\\" /Fd"RELEASE\VC140.PDB" /Gd /TP /analyze- E:\UNIVERSITY\YEAR 4\ADVANCED PROGRAMMING\CWK\TRAFFIC SIMULATOR 2017\GAMEENGINE\OBJECTLOADING\TEXTURE.CPP
^E:\UNIVERSITY\YEAR 4\ADVANCED PROGRAMMING\CWK\TRAFFIC SIMULATOR 2017\GAMEENGINE\OPENGLHELPER.CPP
/c /I.\INCLUDE /Zi /nologo /W3 /WX- /sdl /O2 /Oi /Oy- /GL /D _MBCS /Gm- /EHsc /MD /GS /Gy /fp:precise /Zc:wchar_t /Zc:forScope /Zc:inline /Fo"RELEASE\\" /Fd"RELEASE\VC140.PDB" /Gd /TP /analyze- E:\UNIVERSITY\YEAR 4\ADVANCED PROGRAMMING\CWK\TRAFFIC SIMULATOR 2017\GAMEENGINE\OPENGLHELPER.CPP
^E:\UNIVERSITY\YEAR 4\ADVANCED PROGRAMMING\CWK\TRAFFIC SIMULATOR 2017\GAMEENGINE\SHADER\SHADER.CPP
/c /I.\INCLUDE /Zi /nologo /W3 /WX- /sdl /O2 /Oi /Oy- /GL /D _MBCS /Gm- /EHsc /MD /GS /Gy /fp:precise /Zc:wchar_t /Zc:forScope /Zc:inline /Fo"RELEASE\\" /Fd"RELEASE\VC140.PDB" /Gd /TP /analyze- E:\UNIVERSITY\YEAR 4\ADVANCED PROGRAMMING\CWK\TRAFFIC SIMULATOR 2017\GAMEENGINE\SHADER\SHADER.CPP
^E:\UNIVERSITY\YEAR 4\ADVANCED PROGRAMMING\CWK\TRAFFIC SIMULATOR 2017\GAMEENGINE\OBJECTLOADING\STB_IMAGE.C
/c /I.\INCLUDE /Zi /nologo /W3 /WX- /sdl /O2 /Oi /Oy- /GL /D _MBCS /Gm- /EHsc /MD /GS /Gy /fp:precise /Zc:wchar_t /Zc:forScope /Zc:inline /Fo"RELEASE\\" /Fd"RELEASE\VC140.PDB" /Gd /TC /analyze- E:\UNIVERSITY\YEAR 4\ADVANCED PROGRAMMING\CWK\TRAFFIC SIMULATOR 2017\GAMEENGINE\OBJECTLOADING\STB_IMAGE.C
^E:\UNIVERSITY\YEAR 4\ADVANCED PROGRAMMING\CWK\TRAFFIC SIMULATOR 2017\GAMEENGINE\OBJECTLOADING\ASSIMP\ASSIMPMODEL.CPP
/c /I.\INCLUDE /Zi /nologo /W3 /WX- /sdl /O2 /Oi /Oy- /GL /D _MBCS /Gm- /EHsc /MD /GS /Gy /fp:precise /Zc:wchar_t /Zc:forScope /Zc:inline /Fo"RELEASE\\" /Fd"RELEASE\VC140.PDB" /Gd /TP /analyze- E:\UNIVERSITY\YEAR 4\ADVANCED PROGRAMMING\CWK\TRAFFIC SIMULATOR 2017\GAMEENGINE\OBJECTLOADING\ASSIMP\ASSIMPMODEL.CPP
^E:\UNIVERSITY\YEAR 4\ADVANCED PROGRAMMING\CWK\TRAFFIC SIMULATOR 2017\GAMEENGINE\OBJECTLOADING\ASSIMP\ASSIMPTEXTURE.CPP
/c /I.\INCLUDE /Zi /nologo /W3 /WX- /sdl /O2 /Oi /Oy- /GL /D _MBCS /Gm- /EHsc /MD /GS /Gy /fp:precise /Zc:wchar_t /Zc:forScope /Zc:inline /Fo"RELEASE\\" /Fd"RELEASE\VC140.PDB" /Gd /TP /analyze- E:\UNIVERSITY\YEAR 4\ADVANCED PROGRAMMING\CWK\TRAFFIC SIMULATOR 2017\GAMEENGINE\OBJECTLOADING\ASSIMP\ASSIMPTEXTURE.CPP
^E:\UNIVERSITY\YEAR 4\ADVANCED PROGRAMMING\CWK\TRAFFIC SIMULATOR 2017\GAMEENGINE\OBJECTLOADING\ASSIMP\VERTEXBUFFER.CPP
/c /I.\INCLUDE /Zi /nologo /W3 /WX- /sdl /O2 /Oi /Oy- /GL /D _MBCS /Gm- /EHsc /MD /GS /Gy /fp:precise /Zc:wchar_t /Zc:forScope /Zc:inline /Fo"RELEASE\\" /Fd"RELEASE\VC140.PDB" /Gd /TP /analyze- E:\UNIVERSITY\YEAR 4\ADVANCED PROGRAMMING\CWK\TRAFFIC SIMULATOR 2017\GAMEENGINE\OBJECTLOADING\ASSIMP\VERTEXBUFFER.CPP
^E:\UNIVERSITY\YEAR 4\ADVANCED PROGRAMMING\CWK\TRAFFIC SIMULATOR 2017\GAMEENGINE\GAMEOBJECTS\MODELLIBRARY.CPP
/c /I.\INCLUDE /Zi /nologo /W3 /WX- /sdl /O2 /Oi /Oy- /GL /D _MBCS /Gm- /EHsc /MD /GS /Gy /fp:precise /Zc:wchar_t /Zc:forScope /Zc:inline /Fo"RELEASE\\" /Fd"RELEASE\VC140.PDB" /Gd /TP /analyze- E:\UNIVERSITY\YEAR 4\ADVANCED PROGRAMMING\CWK\TRAFFIC SIMULATOR 2017\GAMEENGINE\GAMEOBJECTS\MODELLIBRARY.CPP
^E:\UNIVERSITY\YEAR 4\ADVANCED PROGRAMMING\CWK\TRAFFIC SIMULATOR 2017\GAMEENGINE\ASTAR\ASTAR.CPP
/c /I.\INCLUDE /Zi /nologo /W3 /WX- /sdl /O2 /Oi /Oy- /GL /D _MBCS /Gm- /EHsc /MD /GS /Gy /fp:precise /Zc:wchar_t /Zc:forScope /Zc:inline /Fo"RELEASE\\" /Fd"RELEASE\VC140.PDB" /Gd /TP /analyze- E:\UNIVERSITY\YEAR 4\ADVANCED PROGRAMMING\CWK\TRAFFIC SIMULATOR 2017\GAMEENGINE\ASTAR\ASTAR.CPP
^E:\UNIVERSITY\YEAR 4\ADVANCED PROGRAMMING\CWK\TRAFFIC SIMULATOR 2017\GAMEENGINE\GAMEENGINE.CPP
/c /I.\INCLUDE /Zi /nologo /W3 /WX- /sdl /O2 /Oi /Oy- /GL /D _MBCS /Gm- /EHsc /MD /GS /Gy /fp:precise /Zc:wchar_t /Zc:forScope /Zc:inline /Fo"RELEASE\\" /Fd"RELEASE\VC140.PDB" /Gd /TP /analyze- E:\UNIVERSITY\YEAR 4\ADVANCED PROGRAMMING\CWK\TRAFFIC SIMULATOR 2017\GAMEENGINE\GAMEENGINE.CPP
^E:\UNIVERSITY\YEAR 4\ADVANCED PROGRAMMING\CWK\TRAFFIC SIMULATOR 2017\GAMEENGINE\GAMEOBJECTS\CAR\CAR.CPP
/c /I.\INCLUDE /Zi /nologo /W3 /WX- /sdl /O2 /Oi /Oy- /GL /D _MBCS /Gm- /EHsc /MD /GS /Gy /fp:precise /Zc:wchar_t /Zc:forScope /Zc:inline /Fo"RELEASE\\" /Fd"RELEASE\VC140.PDB" /Gd /TP /analyze- E:\UNIVERSITY\YEAR 4\ADVANCED PROGRAMMING\CWK\TRAFFIC SIMULATOR 2017\GAMEENGINE\GAMEOBJECTS\CAR\CAR.CPP
^E:\UNIVERSITY\YEAR 4\ADVANCED PROGRAMMING\CWK\TRAFFIC SIMULATOR 2017\GAMEENGINE\GAMEOBJECTS\ROADS\CORNER.CPP
/c /I.\INCLUDE /Zi /nologo /W3 /WX- /sdl /O2 /Oi /Oy- /GL /D _MBCS /Gm- /EHsc /MD /GS /Gy /fp:precise /Zc:wchar_t /Zc:forScope /Zc:inline /Fo"RELEASE\\" /Fd"RELEASE\VC140.PDB" /Gd /TP /analyze- E:\UNIVERSITY\YEAR 4\ADVANCED PROGRAMMING\CWK\TRAFFIC SIMULATOR 2017\GAMEENGINE\GAMEOBJECTS\ROADS\CORNER.CPP
^E:\UNIVERSITY\YEAR 4\ADVANCED PROGRAMMING\CWK\TRAFFIC SIMULATOR 2017\GAMEENGINE\GAMEOBJECTS\ROADS\CROSSROAD.CPP
/c /I.\INCLUDE /Zi /nologo /W3 /WX- /sdl /O2 /Oi /Oy- /GL /D _MBCS /Gm- /EHsc /MD /GS /Gy /fp:precise /Zc:wchar_t /Zc:forScope /Zc:inline /Fo"RELEASE\\" /Fd"RELEASE\VC140.PDB" /Gd /TP /analyze- E:\UNIVERSITY\YEAR 4\ADVANCED PROGRAMMING\CWK\TRAFFIC SIMULATOR 2017\GAMEENGINE\GAMEOBJECTS\ROADS\CROSSROAD.CPP
^E:\UNIVERSITY\YEAR 4\ADVANCED PROGRAMMING\CWK\TRAFFIC SIMULATOR 2017\GAMEENGINE\GAMEOBJECTS\ROADS\EMPTY.CPP
/c /I.\INCLUDE /Zi /nologo /W3 /WX- /sdl /O2 /Oi /Oy- /GL /D _MBCS /Gm- /EHsc /MD /GS /Gy /fp:precise /Zc:wchar_t /Zc:forScope /Zc:inline /Fo"RELEASE\\" /Fd"RELEASE\VC140.PDB" /Gd /TP /analyze- E:\UNIVERSITY\YEAR 4\ADVANCED PROGRAMMING\CWK\TRAFFIC SIMULATOR 2017\GAMEENGINE\GAMEOBJECTS\ROADS\EMPTY.CPP
^E:\UNIVERSITY\YEAR 4\ADVANCED PROGRAMMING\CWK\TRAFFIC SIMULATOR 2017\GAMEENGINE\GAMEOBJECTS\ROADS\ROAD.CPP
/c /I.\INCLUDE /Zi /nologo /W3 /WX- /sdl /O2 /Oi /Oy- /GL /D _MBCS /Gm- /EHsc /MD /GS /Gy /fp:precise /Zc:wchar_t /Zc:forScope /Zc:inline /Fo"RELEASE\\" /Fd"RELEASE\VC140.PDB" /Gd /TP /analyze- E:\UNIVERSITY\YEAR 4\ADVANCED PROGRAMMING\CWK\TRAFFIC SIMULATOR 2017\GAMEENGINE\GAMEOBJECTS\ROADS\ROAD.CPP
^E:\UNIVERSITY\YEAR 4\ADVANCED PROGRAMMING\CWK\TRAFFIC SIMULATOR 2017\GAMEENGINE\GAMEOBJECTS\ROADS\ROADDETAILS.CPP
/c /I.\INCLUDE /Zi /nologo /W3 /WX- /sdl /O2 /Oi /Oy- /GL /D _MBCS /Gm- /EHsc /MD /GS /Gy /fp:precise /Zc:wchar_t /Zc:forScope /Zc:inline /Fo"RELEASE\\" /Fd"RELEASE\VC140.PDB" /Gd /TP /analyze- E:\UNIVERSITY\YEAR 4\ADVANCED PROGRAMMING\CWK\TRAFFIC SIMULATOR 2017\GAMEENGINE\GAMEOBJECTS\ROADS\ROADDETAILS.CPP
^E:\UNIVERSITY\YEAR 4\ADVANCED PROGRAMMING\CWK\TRAFFIC SIMULATOR 2017\GAMEENGINE\GAMEOBJECTS\ROADS\STRAIGHT.CPP
/c /I.\INCLUDE /Zi /nologo /W3 /WX- /sdl /O2 /Oi /Oy- /GL /D _MBCS /Gm- /EHsc /MD /GS /Gy /fp:precise /Zc:wchar_t /Zc:forScope /Zc:inline /Fo"RELEASE\\" /Fd"RELEASE\VC140.PDB" /Gd /TP /analyze- E:\UNIVERSITY\YEAR 4\ADVANCED PROGRAMMING\CWK\TRAFFIC SIMULATOR 2017\GAMEENGINE\GAMEOBJECTS\ROADS\STRAIGHT.CPP
^E:\UNIVERSITY\YEAR 4\ADVANCED PROGRAMMING\CWK\TRAFFIC SIMULATOR 2017\GAMEENGINE\GAMEOBJECTS\ROADS\TJUNC.CPP
/c /I.\INCLUDE /Zi /nologo /W3 /WX- /sdl /O2 /Oi /Oy- /GL /D _MBCS /Gm- /EHsc /MD /GS /Gy /fp:precise /Zc:wchar_t /Zc:forScope /Zc:inline /Fo"RELEASE\\" /Fd"RELEASE\VC140.PDB" /Gd /TP /analyze- E:\UNIVERSITY\YEAR 4\ADVANCED PROGRAMMING\CWK\TRAFFIC SIMULATOR 2017\GAMEENGINE\GAMEOBJECTS\ROADS\TJUNC.CPP
^E:\UNIVERSITY\YEAR 4\ADVANCED PROGRAMMING\CWK\TRAFFIC SIMULATOR 2017\GAMEENGINE\GAMEOBJECTS\WORLD\2DWORLD.CPP
/c /I.\INCLUDE /Zi /nologo /W3 /WX- /sdl /O2 /Oi /Oy- /GL /D _MBCS /Gm- /EHsc /MD /GS /Gy /fp:precise /Zc:wchar_t /Zc:forScope /Zc:inline /Fo"RELEASE\\" /Fd"RELEASE\VC140.PDB" /Gd /TP /analyze- E:\UNIVERSITY\YEAR 4\ADVANCED PROGRAMMING\CWK\TRAFFIC SIMULATOR 2017\GAMEENGINE\GAMEOBJECTS\WORLD\2DWORLD.CPP
^E:\UNIVERSITY\YEAR 4\ADVANCED PROGRAMMING\CWK\TRAFFIC SIMULATOR 2017\GAMEENGINE\GAMEOBJECTS\WORLD\3DWORLD.CPP
/c /I.\INCLUDE /Zi /nologo /W3 /WX- /sdl /O2 /Oi /Oy- /GL /D _MBCS /Gm- /EHsc /MD /GS /Gy /fp:precise /Zc:wchar_t /Zc:forScope /Zc:inline /Fo"RELEASE\\" /Fd"RELEASE\VC140.PDB" /Gd /TP /analyze- E:\UNIVERSITY\YEAR 4\ADVANCED PROGRAMMING\CWK\TRAFFIC SIMULATOR 2017\GAMEENGINE\GAMEOBJECTS\WORLD\3DWORLD.CPP
^I:\UNIVERSITY\YEAR 4\ADVANCED PROGRAMMING\CWK\TRAFFIC SIMULATOR 2017\GAMEENGINE\ASTAR\ASTAR.CPP
/c /I.\INCLUDE /Zi /nologo /W3 /WX- /sdl /O2 /Oi /Oy- /GL /D _MBCS /Gm- /EHsc /MD /GS /Gy /fp:precise /Zc:wchar_t /Zc:forScope /Zc:inline /Fo"RELEASE\\" /Fd"RELEASE\VC140.PDB" /Gd /TP /analyze- I:\UNIVERSITY\YEAR 4\ADVANCED PROGRAMMING\CWK\TRAFFIC SIMULATOR 2017\GAMEENGINE\ASTAR\ASTAR.CPP
^I:\UNIVERSITY\YEAR 4\ADVANCED PROGRAMMING\CWK\TRAFFIC SIMULATOR 2017\GAMEENGINE\GAMEOBJECTS\CAMERA.CPP
/c /I.\INCLUDE /Zi /nologo /W3 /WX- /sdl /O2 /Oi /Oy- /GL /D _MBCS /Gm- /EHsc /MD /GS /Gy /fp:precise /Zc:wchar_t /Zc:forScope /Zc:inline /Fo"RELEASE\\" /Fd"RELEASE\VC140.PDB" /Gd /TP /analyze- I:\UNIVERSITY\YEAR 4\ADVANCED PROGRAMMING\CWK\TRAFFIC SIMULATOR 2017\GAMEENGINE\GAMEOBJECTS\CAMERA.CPP
^I:\UNIVERSITY\YEAR 4\ADVANCED PROGRAMMING\CWK\TRAFFIC SIMULATOR 2017\GAMEENGINE\GAMEOBJECTS\CAR\CAR.CPP
/c /I.\INCLUDE /Zi /nologo /W3 /WX- /sdl /O2 /Oi /Oy- /GL /D _MBCS /Gm- /EHsc /MD /GS /Gy /fp:precise /Zc:wchar_t /Zc:forScope /Zc:inline /Fo"RELEASE\\" /Fd"RELEASE\VC140.PDB" /Gd /TP /analyze- I:\UNIVERSITY\YEAR 4\ADVANCED PROGRAMMING\CWK\TRAFFIC SIMULATOR 2017\GAMEENGINE\GAMEOBJECTS\CAR\CAR.CPP
^I:\UNIVERSITY\YEAR 4\ADVANCED PROGRAMMING\CWK\TRAFFIC SIMULATOR 2017\GAMEENGINE\GAMEOBJECTS\MODELLIBRARY.CPP
/c /I.\INCLUDE /Zi /nologo /W3 /WX- /sdl /O2 /Oi /Oy- /GL /D _MBCS /Gm- /EHsc /MD /GS /Gy /fp:precise /Zc:wchar_t /Zc:forScope /Zc:inline /Fo"RELEASE\\" /Fd"RELEASE\VC140.PDB" /Gd /TP /analyze- I:\UNIVERSITY\YEAR 4\ADVANCED PROGRAMMING\CWK\TRAFFIC SIMULATOR 2017\GAMEENGINE\GAMEOBJECTS\MODELLIBRARY.CPP
^I:\UNIVERSITY\YEAR 4\ADVANCED PROGRAMMING\CWK\TRAFFIC SIMULATOR 2017\GAMEENGINE\GAMEOBJECTS\PRIMITIVES\MESH.CPP
/c /I.\INCLUDE /Zi /nologo /W3 /WX- /sdl /O2 /Oi /Oy- /GL /D _MBCS /Gm- /EHsc /MD /GS /Gy /fp:precise /Zc:wchar_t /Zc:forScope /Zc:inline /Fo"RELEASE\\" /Fd"RELEASE\VC140.PDB" /Gd /TP /analyze- I:\UNIVERSITY\YEAR 4\ADVANCED PROGRAMMING\CWK\TRAFFIC SIMULATOR 2017\GAMEENGINE\GAMEOBJECTS\PRIMITIVES\MESH.CPP
^I:\UNIVERSITY\YEAR 4\ADVANCED PROGRAMMING\CWK\TRAFFIC SIMULATOR 2017\GAMEENGINE\GAMEOBJECTS\PRIMITIVES\RAY.CPP
/c /I.\INCLUDE /Zi /nologo /W3 /WX- /sdl /O2 /Oi /Oy- /GL /D _MBCS /Gm- /EHsc /MD /GS /Gy /fp:precise /Zc:wchar_t /Zc:forScope /Zc:inline /Fo"RELEASE\\" /Fd"RELEASE\VC140.PDB" /Gd /TP /analyze- I:\UNIVERSITY\YEAR 4\ADVANCED PROGRAMMING\CWK\TRAFFIC SIMULATOR 2017\GAMEENGINE\GAMEOBJECTS\PRIMITIVES\RAY.CPP
^I:\UNIVERSITY\YEAR 4\ADVANCED PROGRAMMING\CWK\TRAFFIC SIMULATOR 2017\GAMEENGINE\GAMEOBJECTS\ROADS\CORNER.CPP
/c /I.\INCLUDE /Zi /nologo /W3 /WX- /sdl /O2 /Oi /Oy- /GL /D _MBCS /Gm- /EHsc /MD /GS /Gy /fp:precise /Zc:wchar_t /Zc:forScope /Zc:inline /Fo"RELEASE\\" /Fd"RELEASE\VC140.PDB" /Gd /TP /analyze- I:\UNIVERSITY\YEAR 4\ADVANCED PROGRAMMING\CWK\TRAFFIC SIMULATOR 2017\GAMEENGINE\GAMEOBJECTS\ROADS\CORNER.CPP
^I:\UNIVERSITY\YEAR 4\ADVANCED PROGRAMMING\CWK\TRAFFIC SIMULATOR 2017\GAMEENGINE\GAMEOBJECTS\ROADS\CROSSROAD.CPP
/c /I.\INCLUDE /Zi /nologo /W3 /WX- /sdl /O2 /Oi /Oy- /GL /D _MBCS /Gm- /EHsc /MD /GS /Gy /fp:precise /Zc:wchar_t /Zc:forScope /Zc:inline /Fo"RELEASE\\" /Fd"RELEASE\VC140.PDB" /Gd /TP /analyze- I:\UNIVERSITY\YEAR 4\ADVANCED PROGRAMMING\CWK\TRAFFIC SIMULATOR 2017\GAMEENGINE\GAMEOBJECTS\ROADS\CROSSROAD.CPP
^I:\UNIVERSITY\YEAR 4\ADVANCED PROGRAMMING\CWK\TRAFFIC SIMULATOR 2017\GAMEENGINE\GAMEOBJECTS\ROADS\EMPTY.CPP
/c /I.\INCLUDE /Zi /nologo /W3 /WX- /sdl /O2 /Oi /Oy- /GL /D _MBCS /Gm- /EHsc /MD /GS /Gy /fp:precise /Zc:wchar_t /Zc:forScope /Zc:inline /Fo"RELEASE\\" /Fd"RELEASE\VC140.PDB" /Gd /TP /analyze- I:\UNIVERSITY\YEAR 4\ADVANCED PROGRAMMING\CWK\TRAFFIC SIMULATOR 2017\GAMEENGINE\GAMEOBJECTS\ROADS\EMPTY.CPP
^I:\UNIVERSITY\YEAR 4\ADVANCED PROGRAMMING\CWK\TRAFFIC SIMULATOR 2017\GAMEENGINE\GAMEOBJECTS\ROADS\ROAD.CPP
/c /I.\INCLUDE /Zi /nologo /W3 /WX- /sdl /O2 /Oi /Oy- /GL /D _MBCS /Gm- /EHsc /MD /GS /Gy /fp:precise /Zc:wchar_t /Zc:forScope /Zc:inline /Fo"RELEASE\\" /Fd"RELEASE\VC140.PDB" /Gd /TP /analyze- I:\UNIVERSITY\YEAR 4\ADVANCED PROGRAMMING\CWK\TRAFFIC SIMULATOR 2017\GAMEENGINE\GAMEOBJECTS\ROADS\ROAD.CPP
^I:\UNIVERSITY\YEAR 4\ADVANCED PROGRAMMING\CWK\TRAFFIC SIMULATOR 2017\GAMEENGINE\GAMEOBJECTS\ROADS\ROADDETAILS.CPP
/c /I.\INCLUDE /Zi /nologo /W3 /WX- /sdl /O2 /Oi /Oy- /GL /D _MBCS /Gm- /EHsc /MD /GS /Gy /fp:precise /Zc:wchar_t /Zc:forScope /Zc:inline /Fo"RELEASE\\" /Fd"RELEASE\VC140.PDB" /Gd /TP /analyze- I:\UNIVERSITY\YEAR 4\ADVANCED PROGRAMMING\CWK\TRAFFIC SIMULATOR 2017\GAMEENGINE\GAMEOBJECTS\ROADS\ROADDETAILS.CPP
^I:\UNIVERSITY\YEAR 4\ADVANCED PROGRAMMING\CWK\TRAFFIC SIMULATOR 2017\GAMEENGINE\GAMEOBJECTS\ROADS\STRAIGHT.CPP
/c /I.\INCLUDE /Zi /nologo /W3 /WX- /sdl /O2 /Oi /Oy- /GL /D _MBCS /Gm- /EHsc /MD /GS /Gy /fp:precise /Zc:wchar_t /Zc:forScope /Zc:inline /Fo"RELEASE\\" /Fd"RELEASE\VC140.PDB" /Gd /TP /analyze- I:\UNIVERSITY\YEAR 4\ADVANCED PROGRAMMING\CWK\TRAFFIC SIMULATOR 2017\GAMEENGINE\GAMEOBJECTS\ROADS\STRAIGHT.CPP
^I:\UNIVERSITY\YEAR 4\ADVANCED PROGRAMMING\CWK\TRAFFIC SIMULATOR 2017\GAMEENGINE\GAMEOBJECTS\ROADS\TJUNC.CPP
/c /I.\INCLUDE /Zi /nologo /W3 /WX- /sdl /O2 /Oi /Oy- /GL /D _MBCS /Gm- /EHsc /MD /GS /Gy /fp:precise /Zc:wchar_t /Zc:forScope /Zc:inline /Fo"RELEASE\\" /Fd"RELEASE\VC140.PDB" /Gd /TP /analyze- I:\UNIVERSITY\YEAR 4\ADVANCED PROGRAMMING\CWK\TRAFFIC SIMULATOR 2017\GAMEENGINE\GAMEOBJECTS\ROADS\TJUNC.CPP
^I:\UNIVERSITY\YEAR 4\ADVANCED PROGRAMMING\CWK\TRAFFIC SIMULATOR 2017\GAMEENGINE\GAMEOBJECTS\WORLD\2DWORLD.CPP
/c /I.\INCLUDE /Zi /nologo /W3 /WX- /sdl /O2 /Oi /Oy- /GL /D _MBCS /Gm- /EHsc /MD /GS /Gy /fp:precise /Zc:wchar_t /Zc:forScope /Zc:inline /Fo"RELEASE\\" /Fd"RELEASE\VC140.PDB" /Gd /TP /analyze- I:\UNIVERSITY\YEAR 4\ADVANCED PROGRAMMING\CWK\TRAFFIC SIMULATOR 2017\GAMEENGINE\GAMEOBJECTS\WORLD\2DWORLD.CPP
^I:\UNIVERSITY\YEAR 4\ADVANCED PROGRAMMING\CWK\TRAFFIC SIMULATOR 2017\GAMEENGINE\GAMEOBJECTS\WORLD\3DWORLD.CPP
/c /I.\INCLUDE /Zi /nologo /W3 /WX- /sdl /O2 /Oi /Oy- /GL /D _MBCS /Gm- /EHsc /MD /GS /Gy /fp:precise /Zc:wchar_t /Zc:forScope /Zc:inline /Fo"RELEASE\\" /Fd"RELEASE\VC140.PDB" /Gd /TP /analyze- I:\UNIVERSITY\YEAR 4\ADVANCED PROGRAMMING\CWK\TRAFFIC SIMULATOR 2017\GAMEENGINE\GAMEOBJECTS\WORLD\3DWORLD.CPP
^I:\UNIVERSITY\YEAR 4\ADVANCED PROGRAMMING\CWK\TRAFFIC SIMULATOR 2017\GAMEENGINE\GUI\BUTTON.CPP
/c /I.\INCLUDE /Zi /nologo /W3 /WX- /sdl /O2 /Oi /Oy- /GL /D _MBCS /Gm- /EHsc /MD /GS /Gy /fp:precise /Zc:wchar_t /Zc:forScope /Zc:inline /Fo"RELEASE\\" /Fd"RELEASE\VC140.PDB" /Gd /TP /analyze- I:\UNIVERSITY\YEAR 4\ADVANCED PROGRAMMING\CWK\TRAFFIC SIMULATOR 2017\GAMEENGINE\GUI\BUTTON.CPP
^I:\UNIVERSITY\YEAR 4\ADVANCED PROGRAMMING\CWK\TRAFFIC SIMULATOR 2017\GAMEENGINE\GUI\GUI.CPP
/c /I.\INCLUDE /Zi /nologo /W3 /WX- /sdl /O2 /Oi /Oy- /GL /D _MBCS /Gm- /EHsc /MD /GS /Gy /fp:precise /Zc:wchar_t /Zc:forScope /Zc:inline /Fo"RELEASE\\" /Fd"RELEASE\VC140.PDB" /Gd /TP /analyze- I:\UNIVERSITY\YEAR 4\ADVANCED PROGRAMMING\CWK\TRAFFIC SIMULATOR 2017\GAMEENGINE\GUI\GUI.CPP
^I:\UNIVERSITY\YEAR 4\ADVANCED PROGRAMMING\CWK\TRAFFIC SIMULATOR 2017\GAMEENGINE\IO\DISPLAYWINDOW.CPP
/c /I.\INCLUDE /Zi /nologo /W3 /WX- /sdl /O2 /Oi /Oy- /GL /D _MBCS /Gm- /EHsc /MD /GS /Gy /fp:precise /Zc:wchar_t /Zc:forScope /Zc:inline /Fo"RELEASE\\" /Fd"RELEASE\VC140.PDB" /Gd /TP /analyze- I:\UNIVERSITY\YEAR 4\ADVANCED PROGRAMMING\CWK\TRAFFIC SIMULATOR 2017\GAMEENGINE\IO\DISPLAYWINDOW.CPP
^I:\UNIVERSITY\YEAR 4\ADVANCED PROGRAMMING\CWK\TRAFFIC SIMULATOR 2017\GAMEENGINE\MAPGEN\ROADMAPGEN.CPP
/c /I.\INCLUDE /Zi /nologo /W3 /WX- /sdl /O2 /Oi /Oy- /GL /D _MBCS /Gm- /EHsc /MD /GS /Gy /fp:precise /Zc:wchar_t /Zc:forScope /Zc:inline /Fo"RELEASE\\" /Fd"RELEASE\VC140.PDB" /Gd /TP /analyze- I:\UNIVERSITY\YEAR 4\ADVANCED PROGRAMMING\CWK\TRAFFIC SIMULATOR 2017\GAMEENGINE\MAPGEN\ROADMAPGEN.CPP
^I:\UNIVERSITY\YEAR 4\ADVANCED PROGRAMMING\CWK\TRAFFIC SIMULATOR 2017\GAMEENGINE\OBJECTLOADING\ASSIMP\ASSIMPMODEL.CPP
/c /I.\INCLUDE /Zi /nologo /W3 /WX- /sdl /O2 /Oi /Oy- /GL /D _MBCS /Gm- /EHsc /MD /GS /Gy /fp:precise /Zc:wchar_t /Zc:forScope /Zc:inline /Fo"RELEASE\\" /Fd"RELEASE\VC140.PDB" /Gd /TP /analyze- I:\UNIVERSITY\YEAR 4\ADVANCED PROGRAMMING\CWK\TRAFFIC SIMULATOR 2017\GAMEENGINE\OBJECTLOADING\ASSIMP\ASSIMPMODEL.CPP
^I:\UNIVERSITY\YEAR 4\ADVANCED PROGRAMMING\CWK\TRAFFIC SIMULATOR 2017\GAMEENGINE\OBJECTLOADING\ASSIMP\ASSIMPTEXTURE.CPP
/c /I.\INCLUDE /Zi /nologo /W3 /WX- /sdl /O2 /Oi /Oy- /GL /D _MBCS /Gm- /EHsc /MD /GS /Gy /fp:precise /Zc:wchar_t /Zc:forScope /Zc:inline /Fo"RELEASE\\" /Fd"RELEASE\VC140.PDB" /Gd /TP /analyze- I:\UNIVERSITY\YEAR 4\ADVANCED PROGRAMMING\CWK\TRAFFIC SIMULATOR 2017\GAMEENGINE\OBJECTLOADING\ASSIMP\ASSIMPTEXTURE.CPP
^I:\UNIVERSITY\YEAR 4\ADVANCED PROGRAMMING\CWK\TRAFFIC SIMULATOR 2017\GAMEENGINE\OBJECTLOADING\ASSIMP\VERTEXBUFFER.CPP
/c /I.\INCLUDE /Zi /nologo /W3 /WX- /sdl /O2 /Oi /Oy- /GL /D _MBCS /Gm- /EHsc /MD /GS /Gy /fp:precise /Zc:wchar_t /Zc:forScope /Zc:inline /Fo"RELEASE\\" /Fd"RELEASE\VC140.PDB" /Gd /TP /analyze- I:\UNIVERSITY\YEAR 4\ADVANCED PROGRAMMING\CWK\TRAFFIC SIMULATOR 2017\GAMEENGINE\OBJECTLOADING\ASSIMP\VERTEXBUFFER.CPP
^I:\UNIVERSITY\YEAR 4\ADVANCED PROGRAMMING\CWK\TRAFFIC SIMULATOR 2017\GAMEENGINE\OBJECTLOADING\OBJ_LOADER.CPP
/c /I.\INCLUDE /Zi /nologo /W3 /WX- /sdl /O2 /Oi /Oy- /GL /D _MBCS /Gm- /EHsc /MD /GS /Gy /fp:precise /Zc:wchar_t /Zc:forScope /Zc:inline /Fo"RELEASE\\" /Fd"RELEASE\VC140.PDB" /Gd /TP /analyze- I:\UNIVERSITY\YEAR 4\ADVANCED PROGRAMMING\CWK\TRAFFIC SIMULATOR 2017\GAMEENGINE\OBJECTLOADING\OBJ_LOADER.CPP
^I:\UNIVERSITY\YEAR 4\ADVANCED PROGRAMMING\CWK\TRAFFIC SIMULATOR 2017\GAMEENGINE\OBJECTLOADING\TEXTURE.CPP
/c /I.\INCLUDE /Zi /nologo /W3 /WX- /sdl /O2 /Oi /Oy- /GL /D _MBCS /Gm- /EHsc /MD /GS /Gy /fp:precise /Zc:wchar_t /Zc:forScope /Zc:inline /Fo"RELEASE\\" /Fd"RELEASE\VC140.PDB" /Gd /TP /analyze- I:\UNIVERSITY\YEAR 4\ADVANCED PROGRAMMING\CWK\TRAFFIC SIMULATOR 2017\GAMEENGINE\OBJECTLOADING\TEXTURE.CPP
^I:\UNIVERSITY\YEAR 4\ADVANCED PROGRAMMING\CWK\TRAFFIC SIMULATOR 2017\GAMEENGINE\OPENGLHELPER.CPP
/c /I.\INCLUDE /Zi /nologo /W3 /WX- /sdl /O2 /Oi /Oy- /GL /D _MBCS /Gm- /EHsc /MD /GS /Gy /fp:precise /Zc:wchar_t /Zc:forScope /Zc:inline /Fo"RELEASE\\" /Fd"RELEASE\VC140.PDB" /Gd /TP /analyze- I:\UNIVERSITY\YEAR 4\ADVANCED PROGRAMMING\CWK\TRAFFIC SIMULATOR 2017\GAMEENGINE\OPENGLHELPER.CPP
^I:\UNIVERSITY\YEAR 4\ADVANCED PROGRAMMING\CWK\TRAFFIC SIMULATOR 2017\GAMEENGINE\SHADER\SHADER.CPP
/c /I.\INCLUDE /Zi /nologo /W3 /WX- /sdl /O2 /Oi /Oy- /GL /D _MBCS /Gm- /EHsc /MD /GS /Gy /fp:precise /Zc:wchar_t /Zc:forScope /Zc:inline /Fo"RELEASE\\" /Fd"RELEASE\VC140.PDB" /Gd /TP /analyze- I:\UNIVERSITY\YEAR 4\ADVANCED PROGRAMMING\CWK\TRAFFIC SIMULATOR 2017\GAMEENGINE\SHADER\SHADER.CPP
^I:\UNIVERSITY\YEAR 4\ADVANCED PROGRAMMING\CWK\TRAFFIC SIMULATOR 2017\GAMEENGINE\OBJECTLOADING\STB_IMAGE.C
/c /I.\INCLUDE /Zi /nologo /W3 /WX- /sdl /O2 /Oi /Oy- /GL /D _MBCS /Gm- /EHsc /MD /GS /Gy /fp:precise /Zc:wchar_t /Zc:forScope /Zc:inline /Fo"RELEASE\\" /Fd"RELEASE\VC140.PDB" /Gd /TC /analyze- I:\UNIVERSITY\YEAR 4\ADVANCED PROGRAMMING\CWK\TRAFFIC SIMULATOR 2017\GAMEENGINE\OBJECTLOADING\STB_IMAGE.C
^I:\UNIVERSITY\YEAR 4\ADVANCED PROGRAMMING\CWK\TRAFFIC SIMULATOR 2017\GAMEENGINE\GAMEENGINE.CPP
/c /I.\INCLUDE /Zi /nologo /W3 /WX- /sdl /O2 /Oi /Oy- /GL /D _MBCS /Gm- /EHsc /MD /GS /Gy /fp:precise /Zc:wchar_t /Zc:forScope /Zc:inline /Fo"RELEASE\\" /Fd"RELEASE\VC140.PDB" /Gd /TP /analyze- I:\UNIVERSITY\YEAR 4\ADVANCED PROGRAMMING\CWK\TRAFFIC SIMULATOR 2017\GAMEENGINE\GAMEENGINE.CPP
